^E:\GAMES-PROGRAMMING\SPIKE 8.1\ZORKISHOO_2\ZORKISHOO_2\ABOUT.CPP
/c /ZI /nologo /W3 /WX- /sdl /Od /D _DEBUG /D _CONSOLE /D _UNICODE /D UNICODE /Gm /EHsc /RTC1 /MDd /GS /fp:precise /Zc:wchar_t /Zc:forScope /Zc:inline /Fo"X64\DEBUG\\" /Fd"X64\DEBUG\VC140.PDB" /Gd /TP E:\GAMES-PROGRAMMING\SPIKE 8.1\ZORKISHOO_2\ZORKISHOO_2\ABOUT.CPP
^E:\GAMES-PROGRAMMING\SPIKE 8.1\ZORKISHOO_2\ZORKISHOO_2\ADVENTURE.CPP
/c /ZI /nologo /W3 /WX- /sdl /Od /D _DEBUG /D _CONSOLE /D _UNICODE /D UNICODE /Gm /EHsc /RTC1 /MDd /GS /fp:precise /Zc:wchar_t /Zc:forScope /Zc:inline /Fo"X64\DEBUG\\" /Fd"X64\DEBUG\VC140.PDB" /Gd /TP E:\GAMES-PROGRAMMING\SPIKE 8.1\ZORKISHOO_2\ZORKISHOO_2\ADVENTURE.CPP
^E:\GAMES-PROGRAMMING\SPIKE 8.1\ZORKISHOO_2\ZORKISHOO_2\BAG.CPP
/c /ZI /nologo /W3 /WX- /sdl /Od /D _DEBUG /D _CONSOLE /D _UNICODE /D UNICODE /Gm /EHsc /RTC1 /MDd /GS /fp:precise /Zc:wchar_t /Zc:forScope /Zc:inline /Fo"X64\DEBUG\\" /Fd"X64\DEBUG\VC140.PDB" /Gd /TP E:\GAMES-PROGRAMMING\SPIKE 8.1\ZORKISHOO_2\ZORKISHOO_2\BAG.CPP
^E:\GAMES-PROGRAMMING\SPIKE 8.1\ZORKISHOO_2\ZORKISHOO_2\COMMANDDOER.CPP
/c /ZI /nologo /W3 /WX- /sdl /Od /D _DEBUG /D _CONSOLE /D _UNICODE /D UNICODE /Gm /EHsc /RTC1 /MDd /GS /fp:precise /Zc:wchar_t /Zc:forScope /Zc:inline /Fo"X64\DEBUG\\" /Fd"X64\DEBUG\VC140.PDB" /Gd /TP E:\GAMES-PROGRAMMING\SPIKE 8.1\ZORKISHOO_2\ZORKISHOO_2\COMMANDDOER.CPP
^E:\GAMES-PROGRAMMING\SPIKE 8.1\ZORKISHOO_2\ZORKISHOO_2\COMMANDREADER.CPP
/c /ZI /nologo /W3 /WX- /sdl /Od /D _DEBUG /D _CONSOLE /D _UNICODE /D UNICODE /Gm /EHsc /RTC1 /MDd /GS /fp:precise /Zc:wchar_t /Zc:forScope /Zc:inline /Fo"X64\DEBUG\\" /Fd"X64\DEBUG\VC140.PDB" /Gd /TP E:\GAMES-PROGRAMMING\SPIKE 8.1\ZORKISHOO_2\ZORKISHOO_2\COMMANDREADER.CPP
^E:\GAMES-PROGRAMMING\SPIKE 8.1\ZORKISHOO_2\ZORKISHOO_2\GAMEMAIN.CPP
/c /ZI /nologo /W3 /WX- /sdl /Od /D _DEBUG /D _CONSOLE /D _UNICODE /D UNICODE /Gm /EHsc /RTC1 /MDd /GS /fp:precise /Zc:wchar_t /Zc:forScope /Zc:inline /Fo"X64\DEBUG\\" /Fd"X64\DEBUG\VC140.PDB" /Gd /TP E:\GAMES-PROGRAMMING\SPIKE 8.1\ZORKISHOO_2\ZORKISHOO_2\GAMEMAIN.CPP
^E:\GAMES-PROGRAMMING\SPIKE 8.1\ZORKISHOO_2\ZORKISHOO_2\GAMEPLAY.CPP
/c /ZI /nologo /W3 /WX- /sdl /Od /D _DEBUG /D _CONSOLE /D _UNICODE /D UNICODE /Gm /EHsc /RTC1 /MDd /GS /fp:precise /Zc:wchar_t /Zc:forScope /Zc:inline /Fo"X64\DEBUG\\" /Fd"X64\DEBUG\VC140.PDB" /Gd /TP E:\GAMES-PROGRAMMING\SPIKE 8.1\ZORKISHOO_2\ZORKISHOO_2\GAMEPLAY.CPP
^E:\GAMES-PROGRAMMING\SPIKE 8.1\ZORKISHOO_2\ZORKISHOO_2\HALLOFAME.CPP
/c /ZI /nologo /W3 /WX- /sdl /Od /D _DEBUG /D _CONSOLE /D _UNICODE /D UNICODE /Gm /EHsc /RTC1 /MDd /GS /fp:precise /Zc:wchar_t /Zc:forScope /Zc:inline /Fo"X64\DEBUG\\" /Fd"X64\DEBUG\VC140.PDB" /Gd /TP E:\GAMES-PROGRAMMING\SPIKE 8.1\ZORKISHOO_2\ZORKISHOO_2\HALLOFAME.CPP
^E:\GAMES-PROGRAMMING\SPIKE 8.1\ZORKISHOO_2\ZORKISHOO_2\HELP.CPP
/c /ZI /nologo /W3 /WX- /sdl /Od /D _DEBUG /D _CONSOLE /D _UNICODE /D UNICODE /Gm /EHsc /RTC1 /MDd /GS /fp:precise /Zc:wchar_t /Zc:forScope /Zc:inline /Fo"X64\DEBUG\\" /Fd"X64\DEBUG\VC140.PDB" /Gd /TP E:\GAMES-PROGRAMMING\SPIKE 8.1\ZORKISHOO_2\ZORKISHOO_2\HELP.CPP
^E:\GAMES-PROGRAMMING\SPIKE 8.1\ZORKISHOO_2\ZORKISHOO_2\HIGHSCORE.CPP
/c /ZI /nologo /W3 /WX- /sdl /Od /D _DEBUG /D _CONSOLE /D _UNICODE /D UNICODE /Gm /EHsc /RTC1 /MDd /GS /fp:precise /Zc:wchar_t /Zc:forScope /Zc:inline /Fo"X64\DEBUG\\" /Fd"X64\DEBUG\VC140.PDB" /Gd /TP E:\GAMES-PROGRAMMING\SPIKE 8.1\ZORKISHOO_2\ZORKISHOO_2\HIGHSCORE.CPP
^E:\GAMES-PROGRAMMING\SPIKE 8.1\ZORKISHOO_2\ZORKISHOO_2\INVENTORY.CPP
/c /ZI /nologo /W3 /WX- /sdl /Od /D _DEBUG /D _CONSOLE /D _UNICODE /D UNICODE /Gm /EHsc /RTC1 /MDd /GS /fp:precise /Zc:wchar_t /Zc:forScope /Zc:inline /Fo"X64\DEBUG\\" /Fd"X64\DEBUG\VC140.PDB" /Gd /TP E:\GAMES-PROGRAMMING\SPIKE 8.1\ZORKISHOO_2\ZORKISHOO_2\INVENTORY.CPP
^E:\GAMES-PROGRAMMING\SPIKE 8.1\ZORKISHOO_2\ZORKISHOO_2\ITEM.CPP
/c /ZI /nologo /W3 /WX- /sdl /Od /D _DEBUG /D _CONSOLE /D _UNICODE /D UNICODE /Gm /EHsc /RTC1 /MDd /GS /fp:precise /Zc:wchar_t /Zc:forScope /Zc:inline /Fo"X64\DEBUG\\" /Fd"X64\DEBUG\VC140.PDB" /Gd /TP E:\GAMES-PROGRAMMING\SPIKE 8.1\ZORKISHOO_2\ZORKISHOO_2\ITEM.CPP
^E:\GAMES-PROGRAMMING\SPIKE 8.1\ZORKISHOO_2\ZORKISHOO_2\LOCATION.CPP
/c /ZI /nologo /W3 /WX- /sdl /Od /D _DEBUG /D _CONSOLE /D _UNICODE /D UNICODE /Gm /EHsc /RTC1 /MDd /GS /fp:precise /Zc:wchar_t /Zc:forScope /Zc:inline /Fo"X64\DEBUG\\" /Fd"X64\DEBUG\VC140.PDB" /Gd /TP E:\GAMES-PROGRAMMING\SPIKE 8.1\ZORKISHOO_2\ZORKISHOO_2\LOCATION.CPP
^E:\GAMES-PROGRAMMING\SPIKE 8.1\ZORKISHOO_2\ZORKISHOO_2\MAINMENU.CPP
/c /ZI /nologo /W3 /WX- /sdl /Od /D _DEBUG /D _CONSOLE /D _UNICODE /D UNICODE /Gm /EHsc /RTC1 /MDd /GS /fp:precise /Zc:wchar_t /Zc:forScope /Zc:inline /Fo"X64\DEBUG\\" /Fd"X64\DEBUG\VC140.PDB" /Gd /TP E:\GAMES-PROGRAMMING\SPIKE 8.1\ZORKISHOO_2\ZORKISHOO_2\MAINMENU.CPP
^E:\GAMES-PROGRAMMING\SPIKE 8.1\ZORKISHOO_2\ZORKISHOO_2\PATH.CPP
/c /ZI /nologo /W3 /WX- /sdl /Od /D _DEBUG /D _CONSOLE /D _UNICODE /D UNICODE /Gm /EHsc /RTC1 /MDd /GS /fp:precise /Zc:wchar_t /Zc:forScope /Zc:inline /Fo"X64\DEBUG\\" /Fd"X64\DEBUG\VC140.PDB" /Gd /TP E:\GAMES-PROGRAMMING\SPIKE 8.1\ZORKISHOO_2\ZORKISHOO_2\PATH.CPP
^E:\GAMES-PROGRAMMING\SPIKE 8.1\ZORKISHOO_2\ZORKISHOO_2\PLAYER.CPP
/c /ZI /nologo /W3 /WX- /sdl /Od /D _DEBUG /D _CONSOLE /D _UNICODE /D UNICODE /Gm /EHsc /RTC1 /MDd /GS /fp:precise /Zc:wchar_t /Zc:forScope /Zc:inline /Fo"X64\DEBUG\\" /Fd"X64\DEBUG\VC140.PDB" /Gd /TP E:\GAMES-PROGRAMMING\SPIKE 8.1\ZORKISHOO_2\ZORKISHOO_2\PLAYER.CPP
^E:\GAMES-PROGRAMMING\SPIKE 8.1\ZORKISHOO_2\ZORKISHOO_2\SELECTADVENTURE.CPP
/c /ZI /nologo /W3 /WX- /sdl /Od /D _DEBUG /D _CONSOLE /D _UNICODE /D UNICODE /Gm /EHsc /RTC1 /MDd /GS /fp:precise /Zc:wchar_t /Zc:forScope /Zc:inline /Fo"X64\DEBUG\\" /Fd"X64\DEBUG\VC140.PDB" /Gd /TP E:\GAMES-PROGRAMMING\SPIKE 8.1\ZORKISHOO_2\ZORKISHOO_2\SELECTADVENTURE.CPP
^E:\GAMES-PROGRAMMING\SPIKE 8.1\ZORKISHOO_2\ZORKISHOO_2\SETUPADVENTURE.CPP
/c /ZI /nologo /W3 /WX- /sdl /Od /D _DEBUG /D _CONSOLE /D _UNICODE /D UNICODE /Gm /EHsc /RTC1 /MDd /GS /fp:precise /Zc:wchar_t /Zc:forScope /Zc:inline /Fo"X64\DEBUG\\" /Fd"X64\DEBUG\VC140.PDB" /Gd /TP E:\GAMES-PROGRAMMING\SPIKE 8.1\ZORKISHOO_2\ZORKISHOO_2\SETUPADVENTURE.CPP
^E:\GAMES-PROGRAMMING\SPIKE 8.1\ZORKISHOO_2\ZORKISHOO_2\SOURCE.CPP
/c /ZI /nologo /W3 /WX- /sdl /Od /D _DEBUG /D _CONSOLE /D _UNICODE /D UNICODE /Gm /EHsc /RTC1 /MDd /GS /fp:precise /Zc:wchar_t /Zc:forScope /Zc:inline /Fo"X64\DEBUG\\" /Fd"X64\DEBUG\VC140.PDB" /Gd /TP E:\GAMES-PROGRAMMING\SPIKE 8.1\ZORKISHOO_2\ZORKISHOO_2\SOURCE.CPP
^E:\GAMES-PROGRAMMING\SPIKE 8.1\ZORKISHOO_2\ZORKISHOO_2\STATE.CPP
/c /ZI /nologo /W3 /WX- /sdl /Od /D _DEBUG /D _CONSOLE /D _UNICODE /D UNICODE /Gm /EHsc /RTC1 /MDd /GS /fp:precise /Zc:wchar_t /Zc:forScope /Zc:inline /Fo"X64\DEBUG\\" /Fd"X64\DEBUG\VC140.PDB" /Gd /TP E:\GAMES-PROGRAMMING\SPIKE 8.1\ZORKISHOO_2\ZORKISHOO_2\STATE.CPP
^E:\GAMES-PROGRAMMING\SPIKE 8.1\ZORKISHOO_2\ZORKISHOO_2\STATEMANAGER.CPP
/c /ZI /nologo /W3 /WX- /sdl /Od /D _DEBUG /D _CONSOLE /D _UNICODE /D UNICODE /Gm /EHsc /RTC1 /MDd /GS /fp:precise /Zc:wchar_t /Zc:forScope /Zc:inline /Fo"X64\DEBUG\\" /Fd"X64\DEBUG\VC140.PDB" /Gd /TP E:\GAMES-PROGRAMMING\SPIKE 8.1\ZORKISHOO_2\ZORKISHOO_2\STATEMANAGER.CPP
^E:\SWINBURNE\2016\SEMESTER 2\GAMES PROGRAMMING\SPIKE 8.1\ZORKISHOO_2\ZORKISHOO_2\ABOUT.CPP
/c /ZI /nologo /W3 /WX- /sdl /Od /D _DEBUG /D _CONSOLE /D _UNICODE /D UNICODE /Gm /EHsc /RTC1 /MDd /GS /fp:precise /Zc:wchar_t /Zc:forScope /Zc:inline /Fo"X64\DEBUG\\" /Fd"X64\DEBUG\VC140.PDB" /Gd /TP E:\SWINBURNE\2016\SEMESTER 2\GAMES PROGRAMMING\SPIKE 8.1\ZORKISHOO_2\ZORKISHOO_2\ABOUT.CPP
^E:\SWINBURNE\2016\SEMESTER 2\GAMES PROGRAMMING\SPIKE 8.1\ZORKISHOO_2\ZORKISHOO_2\ADVENTURE.CPP
/c /ZI /nologo /W3 /WX- /sdl /Od /D _DEBUG /D _CONSOLE /D _UNICODE /D UNICODE /Gm /EHsc /RTC1 /MDd /GS /fp:precise /Zc:wchar_t /Zc:forScope /Zc:inline /Fo"X64\DEBUG\\" /Fd"X64\DEBUG\VC140.PDB" /Gd /TP E:\SWINBURNE\2016\SEMESTER 2\GAMES PROGRAMMING\SPIKE 8.1\ZORKISHOO_2\ZORKISHOO_2\ADVENTURE.CPP
^E:\SWINBURNE\2016\SEMESTER 2\GAMES PROGRAMMING\SPIKE 8.1\ZORKISHOO_2\ZORKISHOO_2\BAG.CPP
/c /ZI /nologo /W3 /WX- /sdl /Od /D _DEBUG /D _CONSOLE /D _UNICODE /D UNICODE /Gm /EHsc /RTC1 /MDd /GS /fp:precise /Zc:wchar_t /Zc:forScope /Zc:inline /Fo"X64\DEBUG\\" /Fd"X64\DEBUG\VC140.PDB" /Gd /TP E:\SWINBURNE\2016\SEMESTER 2\GAMES PROGRAMMING\SPIKE 8.1\ZORKISHOO_2\ZORKISHOO_2\BAG.CPP
^E:\SWINBURNE\2016\SEMESTER 2\GAMES PROGRAMMING\SPIKE 8.1\ZORKISHOO_2\ZORKISHOO_2\COMMANDDOER.CPP
/c /ZI /nologo /W3 /WX- /sdl /Od /D _DEBUG /D _CONSOLE /D _UNICODE /D UNICODE /Gm /EHsc /RTC1 /MDd /GS /fp:precise /Zc:wchar_t /Zc:forScope /Zc:inline /Fo"X64\DEBUG\\" /Fd"X64\DEBUG\VC140.PDB" /Gd /TP E:\SWINBURNE\2016\SEMESTER 2\GAMES PROGRAMMING\SPIKE 8.1\ZORKISHOO_2\ZORKISHOO_2\COMMANDDOER.CPP
^E:\SWINBURNE\2016\SEMESTER 2\GAMES PROGRAMMING\SPIKE 8.1\ZORKISHOO_2\ZORKISHOO_2\COMMANDREADER.CPP
/c /ZI /nologo /W3 /WX- /sdl /Od /D _DEBUG /D _CONSOLE /D _UNICODE /D UNICODE /Gm /EHsc /RTC1 /MDd /GS /fp:precise /Zc:wchar_t /Zc:forScope /Zc:inline /Fo"X64\DEBUG\\" /Fd"X64\DEBUG\VC140.PDB" /Gd /TP E:\SWINBURNE\2016\SEMESTER 2\GAMES PROGRAMMING\SPIKE 8.1\ZORKISHOO_2\ZORKISHOO_2\COMMANDREADER.CPP
^E:\SWINBURNE\2016\SEMESTER 2\GAMES PROGRAMMING\SPIKE 8.1\ZORKISHOO_2\ZORKISHOO_2\GAMEMAIN.CPP
/c /ZI /nologo /W3 /WX- /sdl /Od /D _DEBUG /D _CONSOLE /D _UNICODE /D UNICODE /Gm /EHsc /RTC1 /MDd /GS /fp:precise /Zc:wchar_t /Zc:forScope /Zc:inline /Fo"X64\DEBUG\\" /Fd"X64\DEBUG\VC140.PDB" /Gd /TP E:\SWINBURNE\2016\SEMESTER 2\GAMES PROGRAMMING\SPIKE 8.1\ZORKISHOO_2\ZORKISHOO_2\GAMEMAIN.CPP
^E:\SWINBURNE\2016\SEMESTER 2\GAMES PROGRAMMING\SPIKE 8.1\ZORKISHOO_2\ZORKISHOO_2\GAMEPLAY.CPP
/c /ZI /nologo /W3 /WX- /sdl /Od /D _DEBUG /D _CONSOLE /D _UNICODE /D UNICODE /Gm /EHsc /RTC1 /MDd /GS /fp:precise /Zc:wchar_t /Zc:forScope /Zc:inline /Fo"X64\DEBUG\\" /Fd"X64\DEBUG\VC140.PDB" /Gd /TP E:\SWINBURNE\2016\SEMESTER 2\GAMES PROGRAMMING\SPIKE 8.1\ZORKISHOO_2\ZORKISHOO_2\GAMEPLAY.CPP
^E:\SWINBURNE\2016\SEMESTER 2\GAMES PROGRAMMING\SPIKE 8.1\ZORKISHOO_2\ZORKISHOO_2\HALLOFAME.CPP
/c /ZI /nologo /W3 /WX- /sdl /Od /D _DEBUG /D _CONSOLE /D _UNICODE /D UNICODE /Gm /EHsc /RTC1 /MDd /GS /fp:precise /Zc:wchar_t /Zc:forScope /Zc:inline /Fo"X64\DEBUG\\" /Fd"X64\DEBUG\VC140.PDB" /Gd /TP E:\SWINBURNE\2016\SEMESTER 2\GAMES PROGRAMMING\SPIKE 8.1\ZORKISHOO_2\ZORKISHOO_2\HALLOFAME.CPP
^E:\SWINBURNE\2016\SEMESTER 2\GAMES PROGRAMMING\SPIKE 8.1\ZORKISHOO_2\ZORKISHOO_2\HELP.CPP
/c /ZI /nologo /W3 /WX- /sdl /Od /D _DEBUG /D _CONSOLE /D _UNICODE /D UNICODE /Gm /EHsc /RTC1 /MDd /GS /fp:precise /Zc:wchar_t /Zc:forScope /Zc:inline /Fo"X64\DEBUG\\" /Fd"X64\DEBUG\VC140.PDB" /Gd /TP E:\SWINBURNE\2016\SEMESTER 2\GAMES PROGRAMMING\SPIKE 8.1\ZORKISHOO_2\ZORKISHOO_2\HELP.CPP
^E:\SWINBURNE\2016\SEMESTER 2\GAMES PROGRAMMING\SPIKE 8.1\ZORKISHOO_2\ZORKISHOO_2\HIGHSCORE.CPP
/c /ZI /nologo /W3 /WX- /sdl /Od /D _DEBUG /D _CONSOLE /D _UNICODE /D UNICODE /Gm /EHsc /RTC1 /MDd /GS /fp:precise /Zc:wchar_t /Zc:forScope /Zc:inline /Fo"X64\DEBUG\\" /Fd"X64\DEBUG\VC140.PDB" /Gd /TP E:\SWINBURNE\2016\SEMESTER 2\GAMES PROGRAMMING\SPIKE 8.1\ZORKISHOO_2\ZORKISHOO_2\HIGHSCORE.CPP
^E:\SWINBURNE\2016\SEMESTER 2\GAMES PROGRAMMING\SPIKE 8.1\ZORKISHOO_2\ZORKISHOO_2\INVENTORY.CPP
/c /ZI /nologo /W3 /WX- /sdl /Od /D _DEBUG /D _CONSOLE /D _UNICODE /D UNICODE /Gm /EHsc /RTC1 /MDd /GS /fp:precise /Zc:wchar_t /Zc:forScope /Zc:inline /Fo"X64\DEBUG\\" /Fd"X64\DEBUG\VC140.PDB" /Gd /TP E:\SWINBURNE\2016\SEMESTER 2\GAMES PROGRAMMING\SPIKE 8.1\ZORKISHOO_2\ZORKISHOO_2\INVENTORY.CPP
^E:\SWINBURNE\2016\SEMESTER 2\GAMES PROGRAMMING\SPIKE 8.1\ZORKISHOO_2\ZORKISHOO_2\ITEM.CPP
/c /ZI /nologo /W3 /WX- /sdl /Od /D _DEBUG /D _CONSOLE /D _UNICODE /D UNICODE /Gm /EHsc /RTC1 /MDd /GS /fp:precise /Zc:wchar_t /Zc:forScope /Zc:inline /Fo"X64\DEBUG\\" /Fd"X64\DEBUG\VC140.PDB" /Gd /TP E:\SWINBURNE\2016\SEMESTER 2\GAMES PROGRAMMING\SPIKE 8.1\ZORKISHOO_2\ZORKISHOO_2\ITEM.CPP
^E:\SWINBURNE\2016\SEMESTER 2\GAMES PROGRAMMING\SPIKE 8.1\ZORKISHOO_2\ZORKISHOO_2\LOCATION.CPP
/c /ZI /nologo /W3 /WX- /sdl /Od /D _DEBUG /D _CONSOLE /D _UNICODE /D UNICODE /Gm /EHsc /RTC1 /MDd /GS /fp:precise /Zc:wchar_t /Zc:forScope /Zc:inline /Fo"X64\DEBUG\\" /Fd"X64\DEBUG\VC140.PDB" /Gd /TP E:\SWINBURNE\2016\SEMESTER 2\GAMES PROGRAMMING\SPIKE 8.1\ZORKISHOO_2\ZORKISHOO_2\LOCATION.CPP
^E:\SWINBURNE\2016\SEMESTER 2\GAMES PROGRAMMING\SPIKE 8.1\ZORKISHOO_2\ZORKISHOO_2\MAINMENU.CPP
/c /ZI /nologo /W3 /WX- /sdl /Od /D _DEBUG /D _CONSOLE /D _UNICODE /D UNICODE /Gm /EHsc /RTC1 /MDd /GS /fp:precise /Zc:wchar_t /Zc:forScope /Zc:inline /Fo"X64\DEBUG\\" /Fd"X64\DEBUG\VC140.PDB" /Gd /TP E:\SWINBURNE\2016\SEMESTER 2\GAMES PROGRAMMING\SPIKE 8.1\ZORKISHOO_2\ZORKISHOO_2\MAINMENU.CPP
^E:\SWINBURNE\2016\SEMESTER 2\GAMES PROGRAMMING\SPIKE 8.1\ZORKISHOO_2\ZORKISHOO_2\PATH.CPP
/c /ZI /nologo /W3 /WX- /sdl /Od /D _DEBUG /D _CONSOLE /D _UNICODE /D UNICODE /Gm /EHsc /RTC1 /MDd /GS /fp:precise /Zc:wchar_t /Zc:forScope /Zc:inline /Fo"X64\DEBUG\\" /Fd"X64\DEBUG\VC140.PDB" /Gd /TP E:\SWINBURNE\2016\SEMESTER 2\GAMES PROGRAMMING\SPIKE 8.1\ZORKISHOO_2\ZORKISHOO_2\PATH.CPP
^E:\SWINBURNE\2016\SEMESTER 2\GAMES PROGRAMMING\SPIKE 8.1\ZORKISHOO_2\ZORKISHOO_2\PLAYER.CPP
/c /ZI /nologo /W3 /WX- /sdl /Od /D _DEBUG /D _CONSOLE /D _UNICODE /D UNICODE /Gm /EHsc /RTC1 /MDd /GS /fp:precise /Zc:wchar_t /Zc:forScope /Zc:inline /Fo"X64\DEBUG\\" /Fd"X64\DEBUG\VC140.PDB" /Gd /TP E:\SWINBURNE\2016\SEMESTER 2\GAMES PROGRAMMING\SPIKE 8.1\ZORKISHOO_2\ZORKISHOO_2\PLAYER.CPP
^E:\SWINBURNE\2016\SEMESTER 2\GAMES PROGRAMMING\SPIKE 8.1\ZORKISHOO_2\ZORKISHOO_2\SELECTADVENTURE.CPP
/c /ZI /nologo /W3 /WX- /sdl /Od /D _DEBUG /D _CONSOLE /D _UNICODE /D UNICODE /Gm /EHsc /RTC1 /MDd /GS /fp:precise /Zc:wchar_t /Zc:forScope /Zc:inline /Fo"X64\DEBUG\\" /Fd"X64\DEBUG\VC140.PDB" /Gd /TP E:\SWINBURNE\2016\SEMESTER 2\GAMES PROGRAMMING\SPIKE 8.1\ZORKISHOO_2\ZORKISHOO_2\SELECTADVENTURE.CPP
^E:\SWINBURNE\2016\SEMESTER 2\GAMES PROGRAMMING\SPIKE 8.1\ZORKISHOO_2\ZORKISHOO_2\SETUPADVENTURE.CPP
/c /ZI /nologo /W3 /WX- /sdl /Od /D _DEBUG /D _CONSOLE /D _UNICODE /D UNICODE /Gm /EHsc /RTC1 /MDd /GS /fp:precise /Zc:wchar_t /Zc:forScope /Zc:inline /Fo"X64\DEBUG\\" /Fd"X64\DEBUG\VC140.PDB" /Gd /TP E:\SWINBURNE\2016\SEMESTER 2\GAMES PROGRAMMING\SPIKE 8.1\ZORKISHOO_2\ZORKISHOO_2\SETUPADVENTURE.CPP
^E:\SWINBURNE\2016\SEMESTER 2\GAMES PROGRAMMING\SPIKE 8.1\ZORKISHOO_2\ZORKISHOO_2\SOURCE.CPP
/c /ZI /nologo /W3 /WX- /sdl /Od /D _DEBUG /D _CONSOLE /D _UNICODE /D UNICODE /Gm /EHsc /RTC1 /MDd /GS /fp:precise /Zc:wchar_t /Zc:forScope /Zc:inline /Fo"X64\DEBUG\\" /Fd"X64\DEBUG\VC140.PDB" /Gd /TP E:\SWINBURNE\2016\SEMESTER 2\GAMES PROGRAMMING\SPIKE 8.1\ZORKISHOO_2\ZORKISHOO_2\SOURCE.CPP
^E:\SWINBURNE\2016\SEMESTER 2\GAMES PROGRAMMING\SPIKE 8.1\ZORKISHOO_2\ZORKISHOO_2\STATE.CPP
/c /ZI /nologo /W3 /WX- /sdl /Od /D _DEBUG /D _CONSOLE /D _UNICODE /D UNICODE /Gm /EHsc /RTC1 /MDd /GS /fp:precise /Zc:wchar_t /Zc:forScope /Zc:inline /Fo"X64\DEBUG\\" /Fd"X64\DEBUG\VC140.PDB" /Gd /TP E:\SWINBURNE\2016\SEMESTER 2\GAMES PROGRAMMING\SPIKE 8.1\ZORKISHOO_2\ZORKISHOO_2\STATE.CPP
^E:\SWINBURNE\2016\SEMESTER 2\GAMES PROGRAMMING\SPIKE 8.1\ZORKISHOO_2\ZORKISHOO_2\STATEMANAGER.CPP
/c /ZI /nologo /W3 /WX- /sdl /Od /D _DEBUG /D _CONSOLE /D _UNICODE /D UNICODE /Gm /EHsc /RTC1 /MDd /GS /fp:precise /Zc:wchar_t /Zc:forScope /Zc:inline /Fo"X64\DEBUG\\" /Fd"X64\DEBUG\VC140.PDB" /Gd /TP E:\SWINBURNE\2016\SEMESTER 2\GAMES PROGRAMMING\SPIKE 8.1\ZORKISHOO_2\ZORKISHOO_2\STATEMANAGER.CPP
^K:\SWINBURNE\2016\SEMESTER 2\SOURCETREE_GAMESPROGRAMMING\SPIKE 8.1\ZORKISHOO_2\ZORKISHOO_2\ABOUT.CPP
/c /ZI /nologo /W3 /WX- /sdl /Od /D _DEBUG /D _CONSOLE /D _UNICODE /D UNICODE /Gm /EHsc /RTC1 /MDd /GS /fp:precise /Zc:wchar_t /Zc:forScope /Zc:inline /Fo"X64\DEBUG\\" /Fd"X64\DEBUG\VC140.PDB" /Gd /TP K:\SWINBURNE\2016\SEMESTER 2\SOURCETREE_GAMESPROGRAMMING\SPIKE 8.1\ZORKISHOO_2\ZORKISHOO_2\ABOUT.CPP
^K:\SWINBURNE\2016\SEMESTER 2\SOURCETREE_GAMESPROGRAMMING\SPIKE 8.1\ZORKISHOO_2\ZORKISHOO_2\ADVENTURE.CPP
/c /ZI /nologo /W3 /WX- /sdl /Od /D _DEBUG /D _CONSOLE /D _UNICODE /D UNICODE /Gm /EHsc /RTC1 /MDd /GS /fp:precise /Zc:wchar_t /Zc:forScope /Zc:inline /Fo"X64\DEBUG\\" /Fd"X64\DEBUG\VC140.PDB" /Gd /TP K:\SWINBURNE\2016\SEMESTER 2\SOURCETREE_GAMESPROGRAMMING\SPIKE 8.1\ZORKISHOO_2\ZORKISHOO_2\ADVENTURE.CPP
^K:\SWINBURNE\2016\SEMESTER 2\SOURCETREE_GAMESPROGRAMMING\SPIKE 8.1\ZORKISHOO_2\ZORKISHOO_2\BAG.CPP
/c /ZI /nologo /W3 /WX- /sdl /Od /D _DEBUG /D _CONSOLE /D _UNICODE /D UNICODE /Gm /EHsc /RTC1 /MDd /GS /fp:precise /Zc:wchar_t /Zc:forScope /Zc:inline /Fo"X64\DEBUG\\" /Fd"X64\DEBUG\VC140.PDB" /Gd /TP K:\SWINBURNE\2016\SEMESTER 2\SOURCETREE_GAMESPROGRAMMING\SPIKE 8.1\ZORKISHOO_2\ZORKISHOO_2\BAG.CPP
^K:\SWINBURNE\2016\SEMESTER 2\SOURCETREE_GAMESPROGRAMMING\SPIKE 8.1\ZORKISHOO_2\ZORKISHOO_2\COMMANDDOER.CPP
/c /ZI /nologo /W3 /WX- /sdl /Od /D _DEBUG /D _CONSOLE /D _UNICODE /D UNICODE /Gm /EHsc /RTC1 /MDd /GS /fp:precise /Zc:wchar_t /Zc:forScope /Zc:inline /Fo"X64\DEBUG\\" /Fd"X64\DEBUG\VC140.PDB" /Gd /TP K:\SWINBURNE\2016\SEMESTER 2\SOURCETREE_GAMESPROGRAMMING\SPIKE 8.1\ZORKISHOO_2\ZORKISHOO_2\COMMANDDOER.CPP
^K:\SWINBURNE\2016\SEMESTER 2\SOURCETREE_GAMESPROGRAMMING\SPIKE 8.1\ZORKISHOO_2\ZORKISHOO_2\COMMANDREADER.CPP
/c /ZI /nologo /W3 /WX- /sdl /Od /D _DEBUG /D _CONSOLE /D _UNICODE /D UNICODE /Gm /EHsc /RTC1 /MDd /GS /fp:precise /Zc:wchar_t /Zc:forScope /Zc:inline /Fo"X64\DEBUG\\" /Fd"X64\DEBUG\VC140.PDB" /Gd /TP K:\SWINBURNE\2016\SEMESTER 2\SOURCETREE_GAMESPROGRAMMING\SPIKE 8.1\ZORKISHOO_2\ZORKISHOO_2\COMMANDREADER.CPP
^K:\SWINBURNE\2016\SEMESTER 2\SOURCETREE_GAMESPROGRAMMING\SPIKE 8.1\ZORKISHOO_2\ZORKISHOO_2\GAMEMAIN.CPP
/c /ZI /nologo /W3 /WX- /sdl /Od /D _DEBUG /D _CONSOLE /D _UNICODE /D UNICODE /Gm /EHsc /RTC1 /MDd /GS /fp:precise /Zc:wchar_t /Zc:forScope /Zc:inline /Fo"X64\DEBUG\\" /Fd"X64\DEBUG\VC140.PDB" /Gd /TP K:\SWINBURNE\2016\SEMESTER 2\SOURCETREE_GAMESPROGRAMMING\SPIKE 8.1\ZORKISHOO_2\ZORKISHOO_2\GAMEMAIN.CPP
^K:\SWINBURNE\2016\SEMESTER 2\SOURCETREE_GAMESPROGRAMMING\SPIKE 8.1\ZORKISHOO_2\ZORKISHOO_2\GAMEPLAY.CPP
/c /ZI /nologo /W3 /WX- /sdl /Od /D _DEBUG /D _CONSOLE /D _UNICODE /D UNICODE /Gm /EHsc /RTC1 /MDd /GS /fp:precise /Zc:wchar_t /Zc:forScope /Zc:inline /Fo"X64\DEBUG\\" /Fd"X64\DEBUG\VC140.PDB" /Gd /TP K:\SWINBURNE\2016\SEMESTER 2\SOURCETREE_GAMESPROGRAMMING\SPIKE 8.1\ZORKISHOO_2\ZORKISHOO_2\GAMEPLAY.CPP
^K:\SWINBURNE\2016\SEMESTER 2\SOURCETREE_GAMESPROGRAMMING\SPIKE 8.1\ZORKISHOO_2\ZORKISHOO_2\HALLOFAME.CPP
/c /ZI /nologo /W3 /WX- /sdl /Od /D _DEBUG /D _CONSOLE /D _UNICODE /D UNICODE /Gm /EHsc /RTC1 /MDd /GS /fp:precise /Zc:wchar_t /Zc:forScope /Zc:inline /Fo"X64\DEBUG\\" /Fd"X64\DEBUG\VC140.PDB" /Gd /TP K:\SWINBURNE\2016\SEMESTER 2\SOURCETREE_GAMESPROGRAMMING\SPIKE 8.1\ZORKISHOO_2\ZORKISHOO_2\HALLOFAME.CPP
^K:\SWINBURNE\2016\SEMESTER 2\SOURCETREE_GAMESPROGRAMMING\SPIKE 8.1\ZORKISHOO_2\ZORKISHOO_2\HELP.CPP
/c /ZI /nologo /W3 /WX- /sdl /Od /D _DEBUG /D _CONSOLE /D _UNICODE /D UNICODE /Gm /EHsc /RTC1 /MDd /GS /fp:precise /Zc:wchar_t /Zc:forScope /Zc:inline /Fo"X64\DEBUG\\" /Fd"X64\DEBUG\VC140.PDB" /Gd /TP K:\SWINBURNE\2016\SEMESTER 2\SOURCETREE_GAMESPROGRAMMING\SPIKE 8.1\ZORKISHOO_2\ZORKISHOO_2\HELP.CPP
^K:\SWINBURNE\2016\SEMESTER 2\SOURCETREE_GAMESPROGRAMMING\SPIKE 8.1\ZORKISHOO_2\ZORKISHOO_2\HIGHSCORE.CPP
/c /ZI /nologo /W3 /WX- /sdl /Od /D _DEBUG /D _CONSOLE /D _UNICODE /D UNICODE /Gm /EHsc /RTC1 /MDd /GS /fp:precise /Zc:wchar_t /Zc:forScope /Zc:inline /Fo"X64\DEBUG\\" /Fd"X64\DEBUG\VC140.PDB" /Gd /TP K:\SWINBURNE\2016\SEMESTER 2\SOURCETREE_GAMESPROGRAMMING\SPIKE 8.1\ZORKISHOO_2\ZORKISHOO_2\HIGHSCORE.CPP
^K:\SWINBURNE\2016\SEMESTER 2\SOURCETREE_GAMESPROGRAMMING\SPIKE 8.1\ZORKISHOO_2\ZORKISHOO_2\INVENTORY.CPP
/c /ZI /nologo /W3 /WX- /sdl /Od /D _DEBUG /D _CONSOLE /D _UNICODE /D UNICODE /Gm /EHsc /RTC1 /MDd /GS /fp:precise /Zc:wchar_t /Zc:forScope /Zc:inline /Fo"X64\DEBUG\\" /Fd"X64\DEBUG\VC140.PDB" /Gd /TP K:\SWINBURNE\2016\SEMESTER 2\SOURCETREE_GAMESPROGRAMMING\SPIKE 8.1\ZORKISHOO_2\ZORKISHOO_2\INVENTORY.CPP
^K:\SWINBURNE\2016\SEMESTER 2\SOURCETREE_GAMESPROGRAMMING\SPIKE 8.1\ZORKISHOO_2\ZORKISHOO_2\ITEM.CPP
/c /ZI /nologo /W3 /WX- /sdl /Od /D _DEBUG /D _CONSOLE /D _UNICODE /D UNICODE /Gm /EHsc /RTC1 /MDd /GS /fp:precise /Zc:wchar_t /Zc:forScope /Zc:inline /Fo"X64\DEBUG\\" /Fd"X64\DEBUG\VC140.PDB" /Gd /TP K:\SWINBURNE\2016\SEMESTER 2\SOURCETREE_GAMESPROGRAMMING\SPIKE 8.1\ZORKISHOO_2\ZORKISHOO_2\ITEM.CPP
^K:\SWINBURNE\2016\SEMESTER 2\SOURCETREE_GAMESPROGRAMMING\SPIKE 8.1\ZORKISHOO_2\ZORKISHOO_2\LOCATION.CPP
/c /ZI /nologo /W3 /WX- /sdl /Od /D _DEBUG /D _CONSOLE /D _UNICODE /D UNICODE /Gm /EHsc /RTC1 /MDd /GS /fp:precise /Zc:wchar_t /Zc:forScope /Zc:inline /Fo"X64\DEBUG\\" /Fd"X64\DEBUG\VC140.PDB" /Gd /TP K:\SWINBURNE\2016\SEMESTER 2\SOURCETREE_GAMESPROGRAMMING\SPIKE 8.1\ZORKISHOO_2\ZORKISHOO_2\LOCATION.CPP
^K:\SWINBURNE\2016\SEMESTER 2\SOURCETREE_GAMESPROGRAMMING\SPIKE 8.1\ZORKISHOO_2\ZORKISHOO_2\MAINMENU.CPP
/c /ZI /nologo /W3 /WX- /sdl /Od /D _DEBUG /D _CONSOLE /D _UNICODE /D UNICODE /Gm /EHsc /RTC1 /MDd /GS /fp:precise /Zc:wchar_t /Zc:forScope /Zc:inline /Fo"X64\DEBUG\\" /Fd"X64\DEBUG\VC140.PDB" /Gd /TP K:\SWINBURNE\2016\SEMESTER 2\SOURCETREE_GAMESPROGRAMMING\SPIKE 8.1\ZORKISHOO_2\ZORKISHOO_2\MAINMENU.CPP
^K:\SWINBURNE\2016\SEMESTER 2\SOURCETREE_GAMESPROGRAMMING\SPIKE 8.1\ZORKISHOO_2\ZORKISHOO_2\PATH.CPP
/c /ZI /nologo /W3 /WX- /sdl /Od /D _DEBUG /D _CONSOLE /D _UNICODE /D UNICODE /Gm /EHsc /RTC1 /MDd /GS /fp:precise /Zc:wchar_t /Zc:forScope /Zc:inline /Fo"X64\DEBUG\\" /Fd"X64\DEBUG\VC140.PDB" /Gd /TP K:\SWINBURNE\2016\SEMESTER 2\SOURCETREE_GAMESPROGRAMMING\SPIKE 8.1\ZORKISHOO_2\ZORKISHOO_2\PATH.CPP
^K:\SWINBURNE\2016\SEMESTER 2\SOURCETREE_GAMESPROGRAMMING\SPIKE 8.1\ZORKISHOO_2\ZORKISHOO_2\PLAYER.CPP
/c /ZI /nologo /W3 /WX- /sdl /Od /D _DEBUG /D _CONSOLE /D _UNICODE /D UNICODE /Gm /EHsc /RTC1 /MDd /GS /fp:precise /Zc:wchar_t /Zc:forScope /Zc:inline /Fo"X64\DEBUG\\" /Fd"X64\DEBUG\VC140.PDB" /Gd /TP K:\SWINBURNE\2016\SEMESTER 2\SOURCETREE_GAMESPROGRAMMING\SPIKE 8.1\ZORKISHOO_2\ZORKISHOO_2\PLAYER.CPP
^K:\SWINBURNE\2016\SEMESTER 2\SOURCETREE_GAMESPROGRAMMING\SPIKE 8.1\ZORKISHOO_2\ZORKISHOO_2\SELECTADVENTURE.CPP
/c /ZI /nologo /W3 /WX- /sdl /Od /D _DEBUG /D _CONSOLE /D _UNICODE /D UNICODE /Gm /EHsc /RTC1 /MDd /GS /fp:precise /Zc:wchar_t /Zc:forScope /Zc:inline /Fo"X64\DEBUG\\" /Fd"X64\DEBUG\VC140.PDB" /Gd /TP K:\SWINBURNE\2016\SEMESTER 2\SOURCETREE_GAMESPROGRAMMING\SPIKE 8.1\ZORKISHOO_2\ZORKISHOO_2\SELECTADVENTURE.CPP
^K:\SWINBURNE\2016\SEMESTER 2\SOURCETREE_GAMESPROGRAMMING\SPIKE 8.1\ZORKISHOO_2\ZORKISHOO_2\SETUPADVENTURE.CPP
/c /ZI /nologo /W3 /WX- /sdl /Od /D _DEBUG /D _CONSOLE /D _UNICODE /D UNICODE /Gm /EHsc /RTC1 /MDd /GS /fp:precise /Zc:wchar_t /Zc:forScope /Zc:inline /Fo"X64\DEBUG\\" /Fd"X64\DEBUG\VC140.PDB" /Gd /TP K:\SWINBURNE\2016\SEMESTER 2\SOURCETREE_GAMESPROGRAMMING\SPIKE 8.1\ZORKISHOO_2\ZORKISHOO_2\SETUPADVENTURE.CPP
^K:\SWINBURNE\2016\SEMESTER 2\SOURCETREE_GAMESPROGRAMMING\SPIKE 8.1\ZORKISHOO_2\ZORKISHOO_2\SOURCE.CPP
/c /ZI /nologo /W3 /WX- /sdl /Od /D _DEBUG /D _CONSOLE /D _UNICODE /D UNICODE /Gm /EHsc /RTC1 /MDd /GS /fp:precise /Zc:wchar_t /Zc:forScope /Zc:inline /Fo"X64\DEBUG\\" /Fd"X64\DEBUG\VC140.PDB" /Gd /TP K:\SWINBURNE\2016\SEMESTER 2\SOURCETREE_GAMESPROGRAMMING\SPIKE 8.1\ZORKISHOO_2\ZORKISHOO_2\SOURCE.CPP
^K:\SWINBURNE\2016\SEMESTER 2\SOURCETREE_GAMESPROGRAMMING\SPIKE 8.1\ZORKISHOO_2\ZORKISHOO_2\STATE.CPP
/c /ZI /nologo /W3 /WX- /sdl /Od /D _DEBUG /D _CONSOLE /D _UNICODE /D UNICODE /Gm /EHsc /RTC1 /MDd /GS /fp:precise /Zc:wchar_t /Zc:forScope /Zc:inline /Fo"X64\DEBUG\\" /Fd"X64\DEBUG\VC140.PDB" /Gd /TP K:\SWINBURNE\2016\SEMESTER 2\SOURCETREE_GAMESPROGRAMMING\SPIKE 8.1\ZORKISHOO_2\ZORKISHOO_2\STATE.CPP
^K:\SWINBURNE\2016\SEMESTER 2\SOURCETREE_GAMESPROGRAMMING\SPIKE 8.1\ZORKISHOO_2\ZORKISHOO_2\STATEMANAGER.CPP
/c /ZI /nologo /W3 /WX- /sdl /Od /D _DEBUG /D _CONSOLE /D _UNICODE /D UNICODE /Gm /EHsc /RTC1 /MDd /GS /fp:precise /Zc:wchar_t /Zc:forScope /Zc:inline /Fo"X64\DEBUG\\" /Fd"X64\DEBUG\VC140.PDB" /Gd /TP K:\SWINBURNE\2016\SEMESTER 2\SOURCETREE_GAMESPROGRAMMING\SPIKE 8.1\ZORKISHOO_2\ZORKISHOO_2\STATEMANAGER.CPP
