^E:\SWINBURNE\2016\SEMESTER 2\SOURCETREE_GAMESPROGRAMMING\SPIKE 2\TESTPROJECT\TESTPROJECT\DEBUG\NEW.OBJ|E:\SWINBURNE\2016\SEMESTER 2\SOURCETREE_GAMESPROGRAMMING\SPIKE 2\TESTPROJECT\TESTPROJECT\DEBUG\STDAFX.OBJ|E:\SWINBURNE\2016\SEMESTER 2\SOURCETREE_GAMESPROGRAMMING\SPIKE 2\TESTPROJECT\TESTPROJECT\DEBUG\TESTPROJECT.OBJ
E:\SWINBURNE\2016\SEMESTER 2\SOURCETREE_GAMESPROGRAMMING\SPIKE 2\TESTPROJECT\DEBUG\TESTPROJECT.ILK
E:\SWINBURNE\2016\SEMESTER 2\SOURCETREE_GAMESPROGRAMMING\SPIKE 2\TESTPROJECT\DEBUG\TESTPROJECT.EXE
E:\SWINBURNE\2016\SEMESTER 2\SOURCETREE_GAMESPROGRAMMING\SPIKE 2\TESTPROJECT\DEBUG\TESTPROJECT.PDB
