^K:\SWINBURNE\2016\SEMESTER 2\SOURCETREE_GAMESPROGRAMMING\SPIKE 9\ZORKISHOO_2\UNITTEST1\STDAFX.CPP
/c /I"F:\PROGRAM FILES (X86)\MICROSOFT VISUAL STUDIO 14.0\VC\UNITTEST\INCLUDE" /ZI /nologo /W3 /WX- /Od /D _DEBUG /D _WINDLL /D _UNICODE /D UNICODE /Gm /EHsc /RTC1 /MDd /GS /fp:precise /Zc:wchar_t /Zc:forScope /Zc:inline /Yc"stdafx.h" /Fp"X64\DEBUG\UNITTEST1.PCH" /Fo"X64\DEBUG\\" /Fd"X64\DEBUG\VC140.PDB" /Gd /TP /FC K:\SWINBURNE\2016\SEMESTER 2\SOURCETREE_GAMESPROGRAMMING\SPIKE 9\ZORKISHOO_2\UNITTEST1\STDAFX.CPP
^K:\SWINBURNE\2016\SEMESTER 2\SOURCETREE_GAMESPROGRAMMING\SPIKE 9\ZORKISHOO_2\UNITTEST1\UNITTEST1.CPP
/c /I"F:\PROGRAM FILES (X86)\MICROSOFT VISUAL STUDIO 14.0\VC\UNITTEST\INCLUDE" /ZI /nologo /W3 /WX- /Od /D _DEBUG /D _WINDLL /D _UNICODE /D UNICODE /Gm /EHsc /RTC1 /MDd /GS /fp:precise /Zc:wchar_t /Zc:forScope /Zc:inline /Yu"stdafx.h" /Fp"X64\DEBUG\UNITTEST1.PCH" /Fo"X64\DEBUG\\" /Fd"X64\DEBUG\VC140.PDB" /Gd /TP /FC K:\SWINBURNE\2016\SEMESTER 2\SOURCETREE_GAMESPROGRAMMING\SPIKE 9\ZORKISHOO_2\UNITTEST1\UNITTEST1.CPP
