^K:\Swinburne\2016\Semester 2\Sourcetree_GamesProgramming\Spike 7\ZorkishOO_2\UnitTest1\UnitTest1.vcxproj
K:\Swinburne\2016\Semester 2\Sourcetree_GamesProgramming\Spike 7\ZorkishOO_2\Debug\UnitTest1.lib
K:\Swinburne\2016\Semester 2\Sourcetree_GamesProgramming\Spike 7\ZorkishOO_2\Debug\UnitTest1.exp
^K:\Swinburne\2016\Semester 2\Sourcetree_GamesProgramming\Spike 7\ZorkishOO_2\UnitTest1\UnitTest1.vcxproj
K:\Swinburne\2016\Semester 2\Sourcetree_GamesProgramming\Spike 7\ZorkishOO_2\Debug\UnitTest1.lib
K:\Swinburne\2016\Semester 2\Sourcetree_GamesProgramming\Spike 7\ZorkishOO_2\Debug\UnitTest1.exp
^K:\Swinburne\2016\Semester 2\Sourcetree_GamesProgramming\Spike 7\ZorkishOO_2\UnitTest1\UnitTest1.vcxproj
K:\Swinburne\2016\Semester 2\Sourcetree_GamesProgramming\Spike 7\ZorkishOO_2\Debug\UnitTest1.lib
K:\Swinburne\2016\Semester 2\Sourcetree_GamesProgramming\Spike 7\ZorkishOO_2\Debug\UnitTest1.exp
^K:\Swinburne\2016\Semester 2\Sourcetree_GamesProgramming\Spike 7\ZorkishOO_2\UnitTest1\UnitTest1.vcxproj
K:\Swinburne\2016\Semester 2\Sourcetree_GamesProgramming\Spike 7\ZorkishOO_2\Debug\UnitTest1.lib
K:\Swinburne\2016\Semester 2\Sourcetree_GamesProgramming\Spike 7\ZorkishOO_2\Debug\UnitTest1.exp
^K:\Swinburne\2016\Semester 2\Sourcetree_GamesProgramming\Spike 7\ZorkishOO_2\UnitTest1\UnitTest1.vcxproj
K:\Swinburne\2016\Semester 2\Sourcetree_GamesProgramming\Spike 7\ZorkishOO_2\Debug\UnitTest1.lib
K:\Swinburne\2016\Semester 2\Sourcetree_GamesProgramming\Spike 7\ZorkishOO_2\Debug\UnitTest1.exp
^K:\Swinburne\2016\Semester 2\Sourcetree_GamesProgramming\Spike 7\ZorkishOO_2\UnitTest1\UnitTest1.vcxproj
K:\Swinburne\2016\Semester 2\Sourcetree_GamesProgramming\Spike 7\ZorkishOO_2\Debug\UnitTest1.lib
K:\Swinburne\2016\Semester 2\Sourcetree_GamesProgramming\Spike 7\ZorkishOO_2\Debug\UnitTest1.exp
^K:\Swinburne\2016\Semester 2\Sourcetree_GamesProgramming\Spike 7\ZorkishOO_2\UnitTest1\UnitTest1.vcxproj
K:\Swinburne\2016\Semester 2\Sourcetree_GamesProgramming\Spike 7\ZorkishOO_2\Debug\UnitTest1.lib
K:\Swinburne\2016\Semester 2\Sourcetree_GamesProgramming\Spike 7\ZorkishOO_2\Debug\UnitTest1.exp
^K:\Swinburne\2016\Semester 2\Sourcetree_GamesProgramming\Spike 7\ZorkishOO_2\UnitTest1\UnitTest1.vcxproj
K:\Swinburne\2016\Semester 2\Sourcetree_GamesProgramming\Spike 7\ZorkishOO_2\Debug\UnitTest1.lib
K:\Swinburne\2016\Semester 2\Sourcetree_GamesProgramming\Spike 7\ZorkishOO_2\Debug\UnitTest1.exp
^K:\Swinburne\2016\Semester 2\Sourcetree_GamesProgramming\Spike 7\ZorkishOO_2\UnitTest1\UnitTest1.vcxproj
K:\Swinburne\2016\Semester 2\Sourcetree_GamesProgramming\Spike 7\ZorkishOO_2\Debug\UnitTest1.lib
K:\Swinburne\2016\Semester 2\Sourcetree_GamesProgramming\Spike 7\ZorkishOO_2\Debug\UnitTest1.exp
^K:\Swinburne\2016\Semester 2\Sourcetree_GamesProgramming\Spike 7\ZorkishOO_2\UnitTest1\UnitTest1.vcxproj
K:\Swinburne\2016\Semester 2\Sourcetree_GamesProgramming\Spike 7\ZorkishOO_2\Debug\UnitTest1.lib
K:\Swinburne\2016\Semester 2\Sourcetree_GamesProgramming\Spike 7\ZorkishOO_2\Debug\UnitTest1.exp
^K:\Swinburne\2016\Semester 2\Sourcetree_GamesProgramming\Spike 7\ZorkishOO_2\UnitTest1\UnitTest1.vcxproj
K:\Swinburne\2016\Semester 2\Sourcetree_GamesProgramming\Spike 7\ZorkishOO_2\Debug\UnitTest1.lib
K:\Swinburne\2016\Semester 2\Sourcetree_GamesProgramming\Spike 7\ZorkishOO_2\Debug\UnitTest1.exp
^K:\Swinburne\2016\Semester 2\Sourcetree_GamesProgramming\Spike 7\ZorkishOO_2\UnitTest1\UnitTest1.vcxproj
K:\Swinburne\2016\Semester 2\Sourcetree_GamesProgramming\Spike 7\ZorkishOO_2\Debug\UnitTest1.lib
K:\Swinburne\2016\Semester 2\Sourcetree_GamesProgramming\Spike 7\ZorkishOO_2\Debug\UnitTest1.exp
^K:\Swinburne\2016\Semester 2\Sourcetree_GamesProgramming\Spike 7\ZorkishOO_2\UnitTest1\UnitTest1.vcxproj
K:\Swinburne\2016\Semester 2\Sourcetree_GamesProgramming\Spike 7\ZorkishOO_2\Debug\UnitTest1.lib
K:\Swinburne\2016\Semester 2\Sourcetree_GamesProgramming\Spike 7\ZorkishOO_2\Debug\UnitTest1.exp
^K:\Swinburne\2016\Semester 2\Sourcetree_GamesProgramming\Spike 7\ZorkishOO_2\UnitTest1\UnitTest1.vcxproj
K:\Swinburne\2016\Semester 2\Sourcetree_GamesProgramming\Spike 7\ZorkishOO_2\Debug\UnitTest1.lib
K:\Swinburne\2016\Semester 2\Sourcetree_GamesProgramming\Spike 7\ZorkishOO_2\Debug\UnitTest1.exp
^K:\Swinburne\2016\Semester 2\Sourcetree_GamesProgramming\Spike 7\ZorkishOO_2\UnitTest1\UnitTest1.vcxproj
K:\Swinburne\2016\Semester 2\Sourcetree_GamesProgramming\Spike 7\ZorkishOO_2\Debug\UnitTest1.lib
K:\Swinburne\2016\Semester 2\Sourcetree_GamesProgramming\Spike 7\ZorkishOO_2\Debug\UnitTest1.exp
^K:\Swinburne\2016\Semester 2\Sourcetree_GamesProgramming\Spike 7\ZorkishOO_2\UnitTest1\UnitTest1.vcxproj
K:\Swinburne\2016\Semester 2\Sourcetree_GamesProgramming\Spike 7\ZorkishOO_2\Debug\UnitTest1.lib
K:\Swinburne\2016\Semester 2\Sourcetree_GamesProgramming\Spike 7\ZorkishOO_2\Debug\UnitTest1.exp
^K:\Swinburne\2016\Semester 2\Sourcetree_GamesProgramming\Spike 7\ZorkishOO_2\UnitTest1\UnitTest1.vcxproj
K:\Swinburne\2016\Semester 2\Sourcetree_GamesProgramming\Spike 7\ZorkishOO_2\Debug\UnitTest1.lib
K:\Swinburne\2016\Semester 2\Sourcetree_GamesProgramming\Spike 7\ZorkishOO_2\Debug\UnitTest1.exp
^K:\Swinburne\2016\Semester 2\Sourcetree_GamesProgramming\Spike 7\ZorkishOO_2\UnitTest1\UnitTest1.vcxproj
K:\Swinburne\2016\Semester 2\Sourcetree_GamesProgramming\Spike 7\ZorkishOO_2\Debug\UnitTest1.lib
K:\Swinburne\2016\Semester 2\Sourcetree_GamesProgramming\Spike 7\ZorkishOO_2\Debug\UnitTest1.exp
^K:\Swinburne\2016\Semester 2\Sourcetree_GamesProgramming\Spike 7\ZorkishOO_2\UnitTest1\UnitTest1.vcxproj
K:\Swinburne\2016\Semester 2\Sourcetree_GamesProgramming\Spike 7\ZorkishOO_2\Debug\UnitTest1.lib
K:\Swinburne\2016\Semester 2\Sourcetree_GamesProgramming\Spike 7\ZorkishOO_2\Debug\UnitTest1.exp
^K:\Swinburne\2016\Semester 2\Sourcetree_GamesProgramming\Spike 7\ZorkishOO_2\UnitTest1\UnitTest1.vcxproj
K:\Swinburne\2016\Semester 2\Sourcetree_GamesProgramming\Spike 7\ZorkishOO_2\Debug\UnitTest1.lib
K:\Swinburne\2016\Semester 2\Sourcetree_GamesProgramming\Spike 7\ZorkishOO_2\Debug\UnitTest1.exp
^K:\Swinburne\2016\Semester 2\Sourcetree_GamesProgramming\Spike 7\ZorkishOO_2\UnitTest1\UnitTest1.vcxproj
K:\Swinburne\2016\Semester 2\Sourcetree_GamesProgramming\Spike 7\ZorkishOO_2\Debug\UnitTest1.lib
K:\Swinburne\2016\Semester 2\Sourcetree_GamesProgramming\Spike 7\ZorkishOO_2\Debug\UnitTest1.exp
^K:\Swinburne\2016\Semester 2\Sourcetree_GamesProgramming\Spike 7\ZorkishOO_2\UnitTest1\UnitTest1.vcxproj
K:\Swinburne\2016\Semester 2\Sourcetree_GamesProgramming\Spike 7\ZorkishOO_2\Debug\UnitTest1.lib
K:\Swinburne\2016\Semester 2\Sourcetree_GamesProgramming\Spike 7\ZorkishOO_2\Debug\UnitTest1.exp
^K:\Swinburne\2016\Semester 2\Sourcetree_GamesProgramming\Spike 7\ZorkishOO_2\UnitTest1\UnitTest1.vcxproj
K:\Swinburne\2016\Semester 2\Sourcetree_GamesProgramming\Spike 7\ZorkishOO_2\Debug\UnitTest1.lib
K:\Swinburne\2016\Semester 2\Sourcetree_GamesProgramming\Spike 7\ZorkishOO_2\Debug\UnitTest1.exp
^K:\Swinburne\2016\Semester 2\Sourcetree_GamesProgramming\Spike 7\ZorkishOO_2\UnitTest1\UnitTest1.vcxproj
K:\Swinburne\2016\Semester 2\Sourcetree_GamesProgramming\Spike 7\ZorkishOO_2\Debug\UnitTest1.lib
K:\Swinburne\2016\Semester 2\Sourcetree_GamesProgramming\Spike 7\ZorkishOO_2\Debug\UnitTest1.exp
^K:\Swinburne\2016\Semester 2\Sourcetree_GamesProgramming\Spike 7\ZorkishOO_2\UnitTest1\UnitTest1.vcxproj
K:\Swinburne\2016\Semester 2\Sourcetree_GamesProgramming\Spike 7\ZorkishOO_2\Debug\UnitTest1.lib
K:\Swinburne\2016\Semester 2\Sourcetree_GamesProgramming\Spike 7\ZorkishOO_2\Debug\UnitTest1.exp
^K:\Swinburne\2016\Semester 2\Sourcetree_GamesProgramming\Spike 7\ZorkishOO_2\UnitTest1\UnitTest1.vcxproj
K:\Swinburne\2016\Semester 2\Sourcetree_GamesProgramming\Spike 7\ZorkishOO_2\Debug\UnitTest1.lib
K:\Swinburne\2016\Semester 2\Sourcetree_GamesProgramming\Spike 7\ZorkishOO_2\Debug\UnitTest1.exp
^K:\Swinburne\2016\Semester 2\Sourcetree_GamesProgramming\Spike 7\ZorkishOO_2\UnitTest1\UnitTest1.vcxproj
K:\Swinburne\2016\Semester 2\Sourcetree_GamesProgramming\Spike 7\ZorkishOO_2\Debug\UnitTest1.lib
K:\Swinburne\2016\Semester 2\Sourcetree_GamesProgramming\Spike 7\ZorkishOO_2\Debug\UnitTest1.exp
^K:\Swinburne\2016\Semester 2\Sourcetree_GamesProgramming\Spike 7\ZorkishOO_2\UnitTest1\UnitTest1.vcxproj
K:\Swinburne\2016\Semester 2\Sourcetree_GamesProgramming\Spike 7\ZorkishOO_2\Debug\UnitTest1.lib
K:\Swinburne\2016\Semester 2\Sourcetree_GamesProgramming\Spike 7\ZorkishOO_2\Debug\UnitTest1.exp
^K:\Swinburne\2016\Semester 2\Sourcetree_GamesProgramming\Spike 7\ZorkishOO_2\UnitTest1\UnitTest1.vcxproj
K:\Swinburne\2016\Semester 2\Sourcetree_GamesProgramming\Spike 7\ZorkishOO_2\Debug\UnitTest1.lib
K:\Swinburne\2016\Semester 2\Sourcetree_GamesProgramming\Spike 7\ZorkishOO_2\Debug\UnitTest1.exp
^K:\Swinburne\2016\Semester 2\Sourcetree_GamesProgramming\Spike 7\ZorkishOO_2\UnitTest1\UnitTest1.vcxproj
K:\Swinburne\2016\Semester 2\Sourcetree_GamesProgramming\Spike 7\ZorkishOO_2\Debug\UnitTest1.lib
K:\Swinburne\2016\Semester 2\Sourcetree_GamesProgramming\Spike 7\ZorkishOO_2\Debug\UnitTest1.exp
^K:\Swinburne\2016\Semester 2\Sourcetree_GamesProgramming\Spike 7\ZorkishOO_2\UnitTest1\UnitTest1.vcxproj
K:\Swinburne\2016\Semester 2\Sourcetree_GamesProgramming\Spike 7\ZorkishOO_2\Debug\UnitTest1.lib
K:\Swinburne\2016\Semester 2\Sourcetree_GamesProgramming\Spike 7\ZorkishOO_2\Debug\UnitTest1.exp
^K:\Swinburne\2016\Semester 2\Sourcetree_GamesProgramming\Spike 7\ZorkishOO_2\UnitTest1\UnitTest1.vcxproj
K:\Swinburne\2016\Semester 2\Sourcetree_GamesProgramming\Spike 7\ZorkishOO_2\Debug\UnitTest1.lib
K:\Swinburne\2016\Semester 2\Sourcetree_GamesProgramming\Spike 7\ZorkishOO_2\Debug\UnitTest1.exp
