^E:\GAMES-PROGRAMMING\SPIKE 8.1\ZORKISHOO_2\ZORKISHOO_2\X64\DEBUG\ABOUT.OBJ|E:\GAMES-PROGRAMMING\SPIKE 8.1\ZORKISHOO_2\ZORKISHOO_2\X64\DEBUG\ADVENTURE.OBJ|E:\GAMES-PROGRAMMING\SPIKE 8.1\ZORKISHOO_2\ZORKISHOO_2\X64\DEBUG\BAG.OBJ|E:\GAMES-PROGRAMMING\SPIKE 8.1\ZORKISHOO_2\ZORKISHOO_2\X64\DEBUG\COMMANDDOER.OBJ|E:\GAMES-PROGRAMMING\SPIKE 8.1\ZORKISHOO_2\ZORKISHOO_2\X64\DEBUG\COMMANDREADER.OBJ|E:\GAMES-PROGRAMMING\SPIKE 8.1\ZORKISHOO_2\ZORKISHOO_2\X64\DEBUG\GAMEMAIN.OBJ|E:\GAMES-PROGRAMMING\SPIKE 8.1\ZORKISHOO_2\ZORKISHOO_2\X64\DEBUG\GAMEPLAY.OBJ|E:\GAMES-PROGRAMMING\SPIKE 8.1\ZORKISHOO_2\ZORKISHOO_2\X64\DEBUG\HALLOFAME.OBJ|E:\GAMES-PROGRAMMING\SPIKE 8.1\ZORKISHOO_2\ZORKISHOO_2\X64\DEBUG\HELP.OBJ|E:\GAMES-PROGRAMMING\SPIKE 8.1\ZORKISHOO_2\ZORKISHOO_2\X64\DEBUG\HIGHSCORE.OBJ|E:\GAMES-PROGRAMMING\SPIKE 8.1\ZORKISHOO_2\ZORKISHOO_2\X64\DEBUG\INVENTORY.OBJ|E:\GAMES-PROGRAMMING\SPIKE 8.1\ZORKISHOO_2\ZORKISHOO_2\X64\DEBUG\ITEM.OBJ|E:\GAMES-PROGRAMMING\SPIKE 8.1\ZORKISHOO_2\ZORKISHOO_2\X64\DEBUG\LOCATION.OBJ|E:\GAMES-PROGRAMMING\SPIKE 8.1\ZORKISHOO_2\ZORKISHOO_2\X64\DEBUG\MAINMENU.OBJ|E:\GAMES-PROGRAMMING\SPIKE 8.1\ZORKISHOO_2\ZORKISHOO_2\X64\DEBUG\PATH.OBJ|E:\GAMES-PROGRAMMING\SPIKE 8.1\ZORKISHOO_2\ZORKISHOO_2\X64\DEBUG\PLAYER.OBJ|E:\GAMES-PROGRAMMING\SPIKE 8.1\ZORKISHOO_2\ZORKISHOO_2\X64\DEBUG\SELECTADVENTURE.OBJ|E:\GAMES-PROGRAMMING\SPIKE 8.1\ZORKISHOO_2\ZORKISHOO_2\X64\DEBUG\SETUPADVENTURE.OBJ|E:\GAMES-PROGRAMMING\SPIKE 8.1\ZORKISHOO_2\ZORKISHOO_2\X64\DEBUG\SOURCE.OBJ|E:\GAMES-PROGRAMMING\SPIKE 8.1\ZORKISHOO_2\ZORKISHOO_2\X64\DEBUG\STATE.OBJ|E:\GAMES-PROGRAMMING\SPIKE 8.1\ZORKISHOO_2\ZORKISHOO_2\X64\DEBUG\STATEMANAGER.OBJ
/OUT:"E:\GAMES-PROGRAMMING\SPIKE 8.1\ZORKISHOO_2\X64\DEBUG\ZORKISHOO_2.EXE" /INCREMENTAL /NOLOGO KERNEL32.LIB USER32.LIB GDI32.LIB WINSPOOL.LIB COMDLG32.LIB ADVAPI32.LIB SHELL32.LIB OLE32.LIB OLEAUT32.LIB UUID.LIB ODBC32.LIB ODBCCP32.LIB /MANIFEST /MANIFESTUAC:"level='asInvoker' uiAccess='false'" /manifest:embed /DEBUG /PDB:"E:\GAMES-PROGRAMMING\SPIKE 8.1\ZORKISHOO_2\X64\DEBUG\ZORKISHOO_2.PDB" /SUBSYSTEM:CONSOLE /TLBID:1 /DYNAMICBASE /NXCOMPAT /IMPLIB:"E:\GAMES-PROGRAMMING\SPIKE 8.1\ZORKISHOO_2\X64\DEBUG\ZORKISHOO_2.LIB" /MACHINE:X64 X64\DEBUG\ABOUT.OBJX64\DEBUG\ADVENTURE.OBJX64\DEBUG\BAG.OBJX64\DEBUG\COMMANDDOER.OBJX64\DEBUG\COMMANDREADER.OBJX64\DEBUG\GAMEMAIN.OBJX64\DEBUG\GAMEPLAY.OBJX64\DEBUG\HALLOFAME.OBJX64\DEBUG\HELP.OBJX64\DEBUG\HIGHSCORE.OBJX64\DEBUG\INVENTORY.OBJX64\DEBUG\ITEM.OBJX64\DEBUG\LOCATION.OBJX64\DEBUG\MAINMENU.OBJX64\DEBUG\PATH.OBJX64\DEBUG\PLAYER.OBJX64\DEBUG\SELECTADVENTURE.OBJX64\DEBUG\SETUPADVENTURE.OBJX64\DEBUG\SOURCE.OBJX64\DEBUG\STATE.OBJX64\DEBUG\STATEMANAGER.OBJ
^E:\SWINBURNE\2016\SEMESTER 2\GAMES PROGRAMMING\SPIKE 9\ZORKISHOO_2\ZORKISHOO_2\X64\DEBUG\ABOUT.OBJ|E:\SWINBURNE\2016\SEMESTER 2\GAMES PROGRAMMING\SPIKE 9\ZORKISHOO_2\ZORKISHOO_2\X64\DEBUG\ADVENTURE.OBJ|E:\SWINBURNE\2016\SEMESTER 2\GAMES PROGRAMMING\SPIKE 9\ZORKISHOO_2\ZORKISHOO_2\X64\DEBUG\BAG.OBJ|E:\SWINBURNE\2016\SEMESTER 2\GAMES PROGRAMMING\SPIKE 9\ZORKISHOO_2\ZORKISHOO_2\X64\DEBUG\BANANA.OBJ|E:\SWINBURNE\2016\SEMESTER 2\GAMES PROGRAMMING\SPIKE 9\ZORKISHOO_2\ZORKISHOO_2\X64\DEBUG\COMMANDDOER.OBJ|E:\SWINBURNE\2016\SEMESTER 2\GAMES PROGRAMMING\SPIKE 9\ZORKISHOO_2\ZORKISHOO_2\X64\DEBUG\COMMANDREADER.OBJ|E:\SWINBURNE\2016\SEMESTER 2\GAMES PROGRAMMING\SPIKE 9\ZORKISHOO_2\ZORKISHOO_2\X64\DEBUG\GAMEMAIN.OBJ|E:\SWINBURNE\2016\SEMESTER 2\GAMES PROGRAMMING\SPIKE 9\ZORKISHOO_2\ZORKISHOO_2\X64\DEBUG\GAMEPLAY.OBJ|E:\SWINBURNE\2016\SEMESTER 2\GAMES PROGRAMMING\SPIKE 9\ZORKISHOO_2\ZORKISHOO_2\X64\DEBUG\HALLOFAME.OBJ|E:\SWINBURNE\2016\SEMESTER 2\GAMES PROGRAMMING\SPIKE 9\ZORKISHOO_2\ZORKISHOO_2\X64\DEBUG\HELP.OBJ|E:\SWINBURNE\2016\SEMESTER 2\GAMES PROGRAMMING\SPIKE 9\ZORKISHOO_2\ZORKISHOO_2\X64\DEBUG\HIGHSCORE.OBJ|E:\SWINBURNE\2016\SEMESTER 2\GAMES PROGRAMMING\SPIKE 9\ZORKISHOO_2\ZORKISHOO_2\X64\DEBUG\INVENTORY.OBJ|E:\SWINBURNE\2016\SEMESTER 2\GAMES PROGRAMMING\SPIKE 9\ZORKISHOO_2\ZORKISHOO_2\X64\DEBUG\ITEM.OBJ|E:\SWINBURNE\2016\SEMESTER 2\GAMES PROGRAMMING\SPIKE 9\ZORKISHOO_2\ZORKISHOO_2\X64\DEBUG\LOCATION.OBJ|E:\SWINBURNE\2016\SEMESTER 2\GAMES PROGRAMMING\SPIKE 9\ZORKISHOO_2\ZORKISHOO_2\X64\DEBUG\MAINMENU.OBJ|E:\SWINBURNE\2016\SEMESTER 2\GAMES PROGRAMMING\SPIKE 9\ZORKISHOO_2\ZORKISHOO_2\X64\DEBUG\PATH.OBJ|E:\SWINBURNE\2016\SEMESTER 2\GAMES PROGRAMMING\SPIKE 9\ZORKISHOO_2\ZORKISHOO_2\X64\DEBUG\PLAYER.OBJ|E:\SWINBURNE\2016\SEMESTER 2\GAMES PROGRAMMING\SPIKE 9\ZORKISHOO_2\ZORKISHOO_2\X64\DEBUG\SELECTADVENTURE.OBJ|E:\SWINBURNE\2016\SEMESTER 2\GAMES PROGRAMMING\SPIKE 9\ZORKISHOO_2\ZORKISHOO_2\X64\DEBUG\SETUPADVENTURE.OBJ|E:\SWINBURNE\2016\SEMESTER 2\GAMES PROGRAMMING\SPIKE 9\ZORKISHOO_2\ZORKISHOO_2\X64\DEBUG\SOURCE.OBJ|E:\SWINBURNE\2016\SEMESTER 2\GAMES PROGRAMMING\SPIKE 9\ZORKISHOO_2\ZORKISHOO_2\X64\DEBUG\STATE.OBJ|E:\SWINBURNE\2016\SEMESTER 2\GAMES PROGRAMMING\SPIKE 9\ZORKISHOO_2\ZORKISHOO_2\X64\DEBUG\STATEMANAGER.OBJ
/OUT:"E:\SWINBURNE\2016\SEMESTER 2\GAMES PROGRAMMING\SPIKE 9\ZORKISHOO_2\X64\DEBUG\ZORKISHOO_2.EXE" /INCREMENTAL /NOLOGO KERNEL32.LIB USER32.LIB GDI32.LIB WINSPOOL.LIB COMDLG32.LIB ADVAPI32.LIB SHELL32.LIB OLE32.LIB OLEAUT32.LIB UUID.LIB ODBC32.LIB ODBCCP32.LIB /MANIFEST /MANIFESTUAC:"level='asInvoker' uiAccess='false'" /manifest:embed /Debug /PDB:"E:\SWINBURNE\2016\SEMESTER 2\GAMES PROGRAMMING\SPIKE 9\ZORKISHOO_2\X64\DEBUG\ZORKISHOO_2.PDB" /SUBSYSTEM:CONSOLE /TLBID:1 /DYNAMICBASE /NXCOMPAT /IMPLIB:"E:\SWINBURNE\2016\SEMESTER 2\GAMES PROGRAMMING\SPIKE 9\ZORKISHOO_2\X64\DEBUG\ZORKISHOO_2.LIB" /MACHINE:X64 X64\DEBUG\ABOUT.OBJX64\DEBUG\ADVENTURE.OBJX64\DEBUG\BAG.OBJX64\DEBUG\BANANA.OBJX64\DEBUG\COMMANDDOER.OBJX64\DEBUG\COMMANDREADER.OBJX64\DEBUG\GAMEMAIN.OBJX64\DEBUG\GAMEPLAY.OBJX64\DEBUG\HALLOFAME.OBJX64\DEBUG\HELP.OBJX64\DEBUG\HIGHSCORE.OBJX64\DEBUG\INVENTORY.OBJX64\DEBUG\ITEM.OBJX64\DEBUG\LOCATION.OBJX64\DEBUG\MAINMENU.OBJX64\DEBUG\PATH.OBJX64\DEBUG\PLAYER.OBJX64\DEBUG\SELECTADVENTURE.OBJX64\DEBUG\SETUPADVENTURE.OBJX64\DEBUG\SOURCE.OBJX64\DEBUG\STATE.OBJX64\DEBUG\STATEMANAGER.OBJ
^E:\SWINBURNE\2016\SEMESTER 2\SOURCETREE_GAMESPROGRAMMING\SPIKE 10\ZORKISHOO_2\ZORKISHOO_2\X64\DEBUG\ABOUT.OBJ|E:\SWINBURNE\2016\SEMESTER 2\SOURCETREE_GAMESPROGRAMMING\SPIKE 10\ZORKISHOO_2\ZORKISHOO_2\X64\DEBUG\ADVENTURE.OBJ|E:\SWINBURNE\2016\SEMESTER 2\SOURCETREE_GAMESPROGRAMMING\SPIKE 10\ZORKISHOO_2\ZORKISHOO_2\X64\DEBUG\ATTACKCOMPONANT.OBJ|E:\SWINBURNE\2016\SEMESTER 2\SOURCETREE_GAMESPROGRAMMING\SPIKE 10\ZORKISHOO_2\ZORKISHOO_2\X64\DEBUG\BAG.OBJ|E:\SWINBURNE\2016\SEMESTER 2\SOURCETREE_GAMESPROGRAMMING\SPIKE 10\ZORKISHOO_2\ZORKISHOO_2\X64\DEBUG\BANANA.OBJ|E:\SWINBURNE\2016\SEMESTER 2\SOURCETREE_GAMESPROGRAMMING\SPIKE 10\ZORKISHOO_2\ZORKISHOO_2\X64\DEBUG\COMMANDDOER.OBJ|E:\SWINBURNE\2016\SEMESTER 2\SOURCETREE_GAMESPROGRAMMING\SPIKE 10\ZORKISHOO_2\ZORKISHOO_2\X64\DEBUG\COMMANDREADER.OBJ|E:\SWINBURNE\2016\SEMESTER 2\SOURCETREE_GAMESPROGRAMMING\SPIKE 10\ZORKISHOO_2\ZORKISHOO_2\X64\DEBUG\GAMEMAIN.OBJ|E:\SWINBURNE\2016\SEMESTER 2\SOURCETREE_GAMESPROGRAMMING\SPIKE 10\ZORKISHOO_2\ZORKISHOO_2\X64\DEBUG\GAMEPLAY.OBJ|E:\SWINBURNE\2016\SEMESTER 2\SOURCETREE_GAMESPROGRAMMING\SPIKE 10\ZORKISHOO_2\ZORKISHOO_2\X64\DEBUG\HALLOFAME.OBJ|E:\SWINBURNE\2016\SEMESTER 2\SOURCETREE_GAMESPROGRAMMING\SPIKE 10\ZORKISHOO_2\ZORKISHOO_2\X64\DEBUG\HEALTHCOMPONENT.OBJ|E:\SWINBURNE\2016\SEMESTER 2\SOURCETREE_GAMESPROGRAMMING\SPIKE 10\ZORKISHOO_2\ZORKISHOO_2\X64\DEBUG\HELP.OBJ|E:\SWINBURNE\2016\SEMESTER 2\SOURCETREE_GAMESPROGRAMMING\SPIKE 10\ZORKISHOO_2\ZORKISHOO_2\X64\DEBUG\HIGHSCORE.OBJ|E:\SWINBURNE\2016\SEMESTER 2\SOURCETREE_GAMESPROGRAMMING\SPIKE 10\ZORKISHOO_2\ZORKISHOO_2\X64\DEBUG\INVENTORY.OBJ|E:\SWINBURNE\2016\SEMESTER 2\SOURCETREE_GAMESPROGRAMMING\SPIKE 10\ZORKISHOO_2\ZORKISHOO_2\X64\DEBUG\ITEM.OBJ|E:\SWINBURNE\2016\SEMESTER 2\SOURCETREE_GAMESPROGRAMMING\SPIKE 10\ZORKISHOO_2\ZORKISHOO_2\X64\DEBUG\LOCATION.OBJ|E:\SWINBURNE\2016\SEMESTER 2\SOURCETREE_GAMESPROGRAMMING\SPIKE 10\ZORKISHOO_2\ZORKISHOO_2\X64\DEBUG\MAINMENU.OBJ|E:\SWINBURNE\2016\SEMESTER 2\SOURCETREE_GAMESPROGRAMMING\SPIKE 10\ZORKISHOO_2\ZORKISHOO_2\X64\DEBUG\PATH.OBJ|E:\SWINBURNE\2016\SEMESTER 2\SOURCETREE_GAMESPROGRAMMING\SPIKE 10\ZORKISHOO_2\ZORKISHOO_2\X64\DEBUG\PLAYER.OBJ|E:\SWINBURNE\2016\SEMESTER 2\SOURCETREE_GAMESPROGRAMMING\SPIKE 10\ZORKISHOO_2\ZORKISHOO_2\X64\DEBUG\SELECTADVENTURE.OBJ|E:\SWINBURNE\2016\SEMESTER 2\SOURCETREE_GAMESPROGRAMMING\SPIKE 10\ZORKISHOO_2\ZORKISHOO_2\X64\DEBUG\SETUPADVENTURE.OBJ|E:\SWINBURNE\2016\SEMESTER 2\SOURCETREE_GAMESPROGRAMMING\SPIKE 10\ZORKISHOO_2\ZORKISHOO_2\X64\DEBUG\SOURCE.OBJ|E:\SWINBURNE\2016\SEMESTER 2\SOURCETREE_GAMESPROGRAMMING\SPIKE 10\ZORKISHOO_2\ZORKISHOO_2\X64\DEBUG\STATE.OBJ|E:\SWINBURNE\2016\SEMESTER 2\SOURCETREE_GAMESPROGRAMMING\SPIKE 10\ZORKISHOO_2\ZORKISHOO_2\X64\DEBUG\STATEMANAGER.OBJ
/OUT:"E:\SWINBURNE\2016\SEMESTER 2\SOURCETREE_GAMESPROGRAMMING\SPIKE 10\ZORKISHOO_2\X64\DEBUG\ZORKISHOO_2.EXE" /INCREMENTAL /NOLOGO KERNEL32.LIB USER32.LIB GDI32.LIB WINSPOOL.LIB COMDLG32.LIB ADVAPI32.LIB SHELL32.LIB OLE32.LIB OLEAUT32.LIB UUID.LIB ODBC32.LIB ODBCCP32.LIB /MANIFEST /MANIFESTUAC:"level='asInvoker' uiAccess='false'" /manifest:embed /Debug /PDB:"E:\SWINBURNE\2016\SEMESTER 2\SOURCETREE_GAMESPROGRAMMING\SPIKE 10\ZORKISHOO_2\X64\DEBUG\ZORKISHOO_2.PDB" /SUBSYSTEM:CONSOLE /TLBID:1 /DYNAMICBASE /NXCOMPAT /IMPLIB:"E:\SWINBURNE\2016\SEMESTER 2\SOURCETREE_GAMESPROGRAMMING\SPIKE 10\ZORKISHOO_2\X64\DEBUG\ZORKISHOO_2.LIB" /MACHINE:X64 X64\DEBUG\ABOUT.OBJX64\DEBUG\ADVENTURE.OBJX64\DEBUG\ATTACKCOMPONANT.OBJX64\DEBUG\BAG.OBJX64\DEBUG\BANANA.OBJX64\DEBUG\COMMANDDOER.OBJX64\DEBUG\COMMANDREADER.OBJX64\DEBUG\GAMEMAIN.OBJX64\DEBUG\GAMEPLAY.OBJX64\DEBUG\HALLOFAME.OBJX64\DEBUG\HEALTHCOMPONENT.OBJX64\DEBUG\HELP.OBJX64\DEBUG\HIGHSCORE.OBJX64\DEBUG\INVENTORY.OBJX64\DEBUG\ITEM.OBJX64\DEBUG\LOCATION.OBJX64\DEBUG\MAINMENU.OBJX64\DEBUG\PATH.OBJX64\DEBUG\PLAYER.OBJX64\DEBUG\SELECTADVENTURE.OBJX64\DEBUG\SETUPADVENTURE.OBJX64\DEBUG\SOURCE.OBJX64\DEBUG\STATE.OBJX64\DEBUG\STATEMANAGER.OBJ
^F:\SWINBURNE\2016\SEMESTER 2\SOURCETREE_GAMESPROGRAMMING\SPIKE 10\ZORKISHOO_2\ZORKISHOO_2\X64\DEBUG\ABOUT.OBJ|F:\SWINBURNE\2016\SEMESTER 2\SOURCETREE_GAMESPROGRAMMING\SPIKE 10\ZORKISHOO_2\ZORKISHOO_2\X64\DEBUG\ADVENTURE.OBJ|F:\SWINBURNE\2016\SEMESTER 2\SOURCETREE_GAMESPROGRAMMING\SPIKE 10\ZORKISHOO_2\ZORKISHOO_2\X64\DEBUG\ATTACKCOMPONANT.OBJ|F:\SWINBURNE\2016\SEMESTER 2\SOURCETREE_GAMESPROGRAMMING\SPIKE 10\ZORKISHOO_2\ZORKISHOO_2\X64\DEBUG\BAG.OBJ|F:\SWINBURNE\2016\SEMESTER 2\SOURCETREE_GAMESPROGRAMMING\SPIKE 10\ZORKISHOO_2\ZORKISHOO_2\X64\DEBUG\BANANA.OBJ|F:\SWINBURNE\2016\SEMESTER 2\SOURCETREE_GAMESPROGRAMMING\SPIKE 10\ZORKISHOO_2\ZORKISHOO_2\X64\DEBUG\COMMANDDOER.OBJ|F:\SWINBURNE\2016\SEMESTER 2\SOURCETREE_GAMESPROGRAMMING\SPIKE 10\ZORKISHOO_2\ZORKISHOO_2\X64\DEBUG\COMMANDREADER.OBJ|F:\SWINBURNE\2016\SEMESTER 2\SOURCETREE_GAMESPROGRAMMING\SPIKE 10\ZORKISHOO_2\ZORKISHOO_2\X64\DEBUG\ENEMY.OBJ|F:\SWINBURNE\2016\SEMESTER 2\SOURCETREE_GAMESPROGRAMMING\SPIKE 10\ZORKISHOO_2\ZORKISHOO_2\X64\DEBUG\GAMEMAIN.OBJ|F:\SWINBURNE\2016\SEMESTER 2\SOURCETREE_GAMESPROGRAMMING\SPIKE 10\ZORKISHOO_2\ZORKISHOO_2\X64\DEBUG\GAMEPLAY.OBJ|F:\SWINBURNE\2016\SEMESTER 2\SOURCETREE_GAMESPROGRAMMING\SPIKE 10\ZORKISHOO_2\ZORKISHOO_2\X64\DEBUG\HALLOFAME.OBJ|F:\SWINBURNE\2016\SEMESTER 2\SOURCETREE_GAMESPROGRAMMING\SPIKE 10\ZORKISHOO_2\ZORKISHOO_2\X64\DEBUG\HEALTHCOMPONENT.OBJ|F:\SWINBURNE\2016\SEMESTER 2\SOURCETREE_GAMESPROGRAMMING\SPIKE 10\ZORKISHOO_2\ZORKISHOO_2\X64\DEBUG\HELP.OBJ|F:\SWINBURNE\2016\SEMESTER 2\SOURCETREE_GAMESPROGRAMMING\SPIKE 10\ZORKISHOO_2\ZORKISHOO_2\X64\DEBUG\HIGHSCORE.OBJ|F:\SWINBURNE\2016\SEMESTER 2\SOURCETREE_GAMESPROGRAMMING\SPIKE 10\ZORKISHOO_2\ZORKISHOO_2\X64\DEBUG\INVENTORY.OBJ|F:\SWINBURNE\2016\SEMESTER 2\SOURCETREE_GAMESPROGRAMMING\SPIKE 10\ZORKISHOO_2\ZORKISHOO_2\X64\DEBUG\ITEM.OBJ|F:\SWINBURNE\2016\SEMESTER 2\SOURCETREE_GAMESPROGRAMMING\SPIKE 10\ZORKISHOO_2\ZORKISHOO_2\X64\DEBUG\LOCATION.OBJ|F:\SWINBURNE\2016\SEMESTER 2\SOURCETREE_GAMESPROGRAMMING\SPIKE 10\ZORKISHOO_2\ZORKISHOO_2\X64\DEBUG\MAINMENU.OBJ|F:\SWINBURNE\2016\SEMESTER 2\SOURCETREE_GAMESPROGRAMMING\SPIKE 10\ZORKISHOO_2\ZORKISHOO_2\X64\DEBUG\PATH.OBJ|F:\SWINBURNE\2016\SEMESTER 2\SOURCETREE_GAMESPROGRAMMING\SPIKE 10\ZORKISHOO_2\ZORKISHOO_2\X64\DEBUG\PLAYER.OBJ|F:\SWINBURNE\2016\SEMESTER 2\SOURCETREE_GAMESPROGRAMMING\SPIKE 10\ZORKISHOO_2\ZORKISHOO_2\X64\DEBUG\SELECTADVENTURE.OBJ|F:\SWINBURNE\2016\SEMESTER 2\SOURCETREE_GAMESPROGRAMMING\SPIKE 10\ZORKISHOO_2\ZORKISHOO_2\X64\DEBUG\SETUPADVENTURE.OBJ|F:\SWINBURNE\2016\SEMESTER 2\SOURCETREE_GAMESPROGRAMMING\SPIKE 10\ZORKISHOO_2\ZORKISHOO_2\X64\DEBUG\SOURCE.OBJ|F:\SWINBURNE\2016\SEMESTER 2\SOURCETREE_GAMESPROGRAMMING\SPIKE 10\ZORKISHOO_2\ZORKISHOO_2\X64\DEBUG\STATE.OBJ|F:\SWINBURNE\2016\SEMESTER 2\SOURCETREE_GAMESPROGRAMMING\SPIKE 10\ZORKISHOO_2\ZORKISHOO_2\X64\DEBUG\STATEMANAGER.OBJ
/OUT:"F:\SWINBURNE\2016\SEMESTER 2\SOURCETREE_GAMESPROGRAMMING\SPIKE 10\ZORKISHOO_2\X64\DEBUG\ZORKISHOO_2.EXE" /INCREMENTAL /NOLOGO KERNEL32.LIB USER32.LIB GDI32.LIB WINSPOOL.LIB COMDLG32.LIB ADVAPI32.LIB SHELL32.LIB OLE32.LIB OLEAUT32.LIB UUID.LIB ODBC32.LIB ODBCCP32.LIB /MANIFEST /MANIFESTUAC:"level='asInvoker' uiAccess='false'" /manifest:embed /DEBUG /PDB:"F:\SWINBURNE\2016\SEMESTER 2\SOURCETREE_GAMESPROGRAMMING\SPIKE 10\ZORKISHOO_2\X64\DEBUG\ZORKISHOO_2.PDB" /SUBSYSTEM:CONSOLE /TLBID:1 /DYNAMICBASE /NXCOMPAT /IMPLIB:"F:\SWINBURNE\2016\SEMESTER 2\SOURCETREE_GAMESPROGRAMMING\SPIKE 10\ZORKISHOO_2\X64\DEBUG\ZORKISHOO_2.LIB" /MACHINE:X64 X64\DEBUG\ABOUT.OBJX64\DEBUG\ADVENTURE.OBJX64\DEBUG\ATTACKCOMPONANT.OBJX64\DEBUG\BAG.OBJX64\DEBUG\BANANA.OBJX64\DEBUG\COMMANDDOER.OBJX64\DEBUG\COMMANDREADER.OBJX64\DEBUG\ENEMY.OBJX64\DEBUG\GAMEMAIN.OBJX64\DEBUG\GAMEPLAY.OBJX64\DEBUG\HALLOFAME.OBJX64\DEBUG\HEALTHCOMPONENT.OBJX64\DEBUG\HELP.OBJX64\DEBUG\HIGHSCORE.OBJX64\DEBUG\INVENTORY.OBJX64\DEBUG\ITEM.OBJX64\DEBUG\LOCATION.OBJX64\DEBUG\MAINMENU.OBJX64\DEBUG\PATH.OBJX64\DEBUG\PLAYER.OBJX64\DEBUG\SELECTADVENTURE.OBJX64\DEBUG\SETUPADVENTURE.OBJX64\DEBUG\SOURCE.OBJX64\DEBUG\STATE.OBJX64\DEBUG\STATEMANAGER.OBJ
^F:\SWINBURNE\2016\SEMESTER 2\SOURCETREE_GAMESPROGRAMMING\SPIKE 11_12\ZORKISHOO_2\ZORKISHOO_2\X64\DEBUG\ABOUT.OBJ|F:\SWINBURNE\2016\SEMESTER 2\SOURCETREE_GAMESPROGRAMMING\SPIKE 11_12\ZORKISHOO_2\ZORKISHOO_2\X64\DEBUG\ADVENTURE.OBJ|F:\SWINBURNE\2016\SEMESTER 2\SOURCETREE_GAMESPROGRAMMING\SPIKE 11_12\ZORKISHOO_2\ZORKISHOO_2\X64\DEBUG\ATTACKCOMPONANT.OBJ|F:\SWINBURNE\2016\SEMESTER 2\SOURCETREE_GAMESPROGRAMMING\SPIKE 11_12\ZORKISHOO_2\ZORKISHOO_2\X64\DEBUG\BAG.OBJ|F:\SWINBURNE\2016\SEMESTER 2\SOURCETREE_GAMESPROGRAMMING\SPIKE 11_12\ZORKISHOO_2\ZORKISHOO_2\X64\DEBUG\BANANA.OBJ|F:\SWINBURNE\2016\SEMESTER 2\SOURCETREE_GAMESPROGRAMMING\SPIKE 11_12\ZORKISHOO_2\ZORKISHOO_2\X64\DEBUG\BLACKBOARD.OBJ|F:\SWINBURNE\2016\SEMESTER 2\SOURCETREE_GAMESPROGRAMMING\SPIKE 11_12\ZORKISHOO_2\ZORKISHOO_2\X64\DEBUG\COMMANDDOER.OBJ|F:\SWINBURNE\2016\SEMESTER 2\SOURCETREE_GAMESPROGRAMMING\SPIKE 11_12\ZORKISHOO_2\ZORKISHOO_2\X64\DEBUG\COMMANDREADER.OBJ|F:\SWINBURNE\2016\SEMESTER 2\SOURCETREE_GAMESPROGRAMMING\SPIKE 11_12\ZORKISHOO_2\ZORKISHOO_2\X64\DEBUG\ENEMY.OBJ|F:\SWINBURNE\2016\SEMESTER 2\SOURCETREE_GAMESPROGRAMMING\SPIKE 11_12\ZORKISHOO_2\ZORKISHOO_2\X64\DEBUG\GAMEMAIN.OBJ|F:\SWINBURNE\2016\SEMESTER 2\SOURCETREE_GAMESPROGRAMMING\SPIKE 11_12\ZORKISHOO_2\ZORKISHOO_2\X64\DEBUG\GAMEPLAY.OBJ|F:\SWINBURNE\2016\SEMESTER 2\SOURCETREE_GAMESPROGRAMMING\SPIKE 11_12\ZORKISHOO_2\ZORKISHOO_2\X64\DEBUG\HALLOFAME.OBJ|F:\SWINBURNE\2016\SEMESTER 2\SOURCETREE_GAMESPROGRAMMING\SPIKE 11_12\ZORKISHOO_2\ZORKISHOO_2\X64\DEBUG\HEALTHCOMPONENT.OBJ|F:\SWINBURNE\2016\SEMESTER 2\SOURCETREE_GAMESPROGRAMMING\SPIKE 11_12\ZORKISHOO_2\ZORKISHOO_2\X64\DEBUG\HELP.OBJ|F:\SWINBURNE\2016\SEMESTER 2\SOURCETREE_GAMESPROGRAMMING\SPIKE 11_12\ZORKISHOO_2\ZORKISHOO_2\X64\DEBUG\HIGHSCORE.OBJ|F:\SWINBURNE\2016\SEMESTER 2\SOURCETREE_GAMESPROGRAMMING\SPIKE 11_12\ZORKISHOO_2\ZORKISHOO_2\X64\DEBUG\INVENTORY.OBJ|F:\SWINBURNE\2016\SEMESTER 2\SOURCETREE_GAMESPROGRAMMING\SPIKE 11_12\ZORKISHOO_2\ZORKISHOO_2\X64\DEBUG\ITEM.OBJ|F:\SWINBURNE\2016\SEMESTER 2\SOURCETREE_GAMESPROGRAMMING\SPIKE 11_12\ZORKISHOO_2\ZORKISHOO_2\X64\DEBUG\LOCATION.OBJ|F:\SWINBURNE\2016\SEMESTER 2\SOURCETREE_GAMESPROGRAMMING\SPIKE 11_12\ZORKISHOO_2\ZORKISHOO_2\X64\DEBUG\MAINMENU.OBJ|F:\SWINBURNE\2016\SEMESTER 2\SOURCETREE_GAMESPROGRAMMING\SPIKE 11_12\ZORKISHOO_2\ZORKISHOO_2\X64\DEBUG\MESSAGE.OBJ|F:\SWINBURNE\2016\SEMESTER 2\SOURCETREE_GAMESPROGRAMMING\SPIKE 11_12\ZORKISHOO_2\ZORKISHOO_2\X64\DEBUG\PATH.OBJ|F:\SWINBURNE\2016\SEMESTER 2\SOURCETREE_GAMESPROGRAMMING\SPIKE 11_12\ZORKISHOO_2\ZORKISHOO_2\X64\DEBUG\PLAYER.OBJ|F:\SWINBURNE\2016\SEMESTER 2\SOURCETREE_GAMESPROGRAMMING\SPIKE 11_12\ZORKISHOO_2\ZORKISHOO_2\X64\DEBUG\SELECTADVENTURE.OBJ|F:\SWINBURNE\2016\SEMESTER 2\SOURCETREE_GAMESPROGRAMMING\SPIKE 11_12\ZORKISHOO_2\ZORKISHOO_2\X64\DEBUG\SETUPADVENTURE.OBJ|F:\SWINBURNE\2016\SEMESTER 2\SOURCETREE_GAMESPROGRAMMING\SPIKE 11_12\ZORKISHOO_2\ZORKISHOO_2\X64\DEBUG\SOURCE.OBJ|F:\SWINBURNE\2016\SEMESTER 2\SOURCETREE_GAMESPROGRAMMING\SPIKE 11_12\ZORKISHOO_2\ZORKISHOO_2\X64\DEBUG\STATE.OBJ|F:\SWINBURNE\2016\SEMESTER 2\SOURCETREE_GAMESPROGRAMMING\SPIKE 11_12\ZORKISHOO_2\ZORKISHOO_2\X64\DEBUG\STATEMANAGER.OBJ
/OUT:"F:\SWINBURNE\2016\SEMESTER 2\SOURCETREE_GAMESPROGRAMMING\SPIKE 11_12\ZORKISHOO_2\X64\DEBUG\ZORKISHOO_2.EXE" /INCREMENTAL /NOLOGO KERNEL32.LIB USER32.LIB GDI32.LIB WINSPOOL.LIB COMDLG32.LIB ADVAPI32.LIB SHELL32.LIB OLE32.LIB OLEAUT32.LIB UUID.LIB ODBC32.LIB ODBCCP32.LIB /MANIFEST /MANIFESTUAC:"level='asInvoker' uiAccess='false'" /manifest:embed /DEBUG /PDB:"F:\SWINBURNE\2016\SEMESTER 2\SOURCETREE_GAMESPROGRAMMING\SPIKE 11_12\ZORKISHOO_2\X64\DEBUG\ZORKISHOO_2.PDB" /SUBSYSTEM:CONSOLE /TLBID:1 /DYNAMICBASE /NXCOMPAT /IMPLIB:"F:\SWINBURNE\2016\SEMESTER 2\SOURCETREE_GAMESPROGRAMMING\SPIKE 11_12\ZORKISHOO_2\X64\DEBUG\ZORKISHOO_2.LIB" /MACHINE:X64 X64\DEBUG\ABOUT.OBJX64\DEBUG\ADVENTURE.OBJX64\DEBUG\ATTACKCOMPONANT.OBJX64\DEBUG\BAG.OBJX64\DEBUG\BANANA.OBJX64\DEBUG\BLACKBOARD.OBJX64\DEBUG\COMMANDDOER.OBJX64\DEBUG\COMMANDREADER.OBJX64\DEBUG\ENEMY.OBJX64\DEBUG\GAMEMAIN.OBJX64\DEBUG\GAMEPLAY.OBJX64\DEBUG\HALLOFAME.OBJX64\DEBUG\HEALTHCOMPONENT.OBJX64\DEBUG\HELP.OBJX64\DEBUG\HIGHSCORE.OBJX64\DEBUG\INVENTORY.OBJX64\DEBUG\ITEM.OBJX64\DEBUG\LOCATION.OBJX64\DEBUG\MAINMENU.OBJX64\DEBUG\MESSAGE.OBJX64\DEBUG\PATH.OBJX64\DEBUG\PLAYER.OBJX64\DEBUG\SELECTADVENTURE.OBJX64\DEBUG\SETUPADVENTURE.OBJX64\DEBUG\SOURCE.OBJX64\DEBUG\STATE.OBJX64\DEBUG\STATEMANAGER.OBJ
^K:\SWINBURNE\2016\SEMESTER 2\SOURCETREE_GAMESPROGRAMMING\SPIKE 11_12\ZORKISHOO_2\ZORKISHOO_2\X64\DEBUG\ABOUT.OBJ|K:\SWINBURNE\2016\SEMESTER 2\SOURCETREE_GAMESPROGRAMMING\SPIKE 11_12\ZORKISHOO_2\ZORKISHOO_2\X64\DEBUG\ADVENTURE.OBJ|K:\SWINBURNE\2016\SEMESTER 2\SOURCETREE_GAMESPROGRAMMING\SPIKE 11_12\ZORKISHOO_2\ZORKISHOO_2\X64\DEBUG\ATTACKCOMPONANT.OBJ|K:\SWINBURNE\2016\SEMESTER 2\SOURCETREE_GAMESPROGRAMMING\SPIKE 11_12\ZORKISHOO_2\ZORKISHOO_2\X64\DEBUG\BAG.OBJ|K:\SWINBURNE\2016\SEMESTER 2\SOURCETREE_GAMESPROGRAMMING\SPIKE 11_12\ZORKISHOO_2\ZORKISHOO_2\X64\DEBUG\BANANA.OBJ|K:\SWINBURNE\2016\SEMESTER 2\SOURCETREE_GAMESPROGRAMMING\SPIKE 11_12\ZORKISHOO_2\ZORKISHOO_2\X64\DEBUG\BLACKBOARD.OBJ|K:\SWINBURNE\2016\SEMESTER 2\SOURCETREE_GAMESPROGRAMMING\SPIKE 11_12\ZORKISHOO_2\ZORKISHOO_2\X64\DEBUG\COMMANDDOER.OBJ|K:\SWINBURNE\2016\SEMESTER 2\SOURCETREE_GAMESPROGRAMMING\SPIKE 11_12\ZORKISHOO_2\ZORKISHOO_2\X64\DEBUG\COMMANDREADER.OBJ|K:\SWINBURNE\2016\SEMESTER 2\SOURCETREE_GAMESPROGRAMMING\SPIKE 11_12\ZORKISHOO_2\ZORKISHOO_2\X64\DEBUG\ENEMY.OBJ|K:\SWINBURNE\2016\SEMESTER 2\SOURCETREE_GAMESPROGRAMMING\SPIKE 11_12\ZORKISHOO_2\ZORKISHOO_2\X64\DEBUG\GAMEMAIN.OBJ|K:\SWINBURNE\2016\SEMESTER 2\SOURCETREE_GAMESPROGRAMMING\SPIKE 11_12\ZORKISHOO_2\ZORKISHOO_2\X64\DEBUG\GAMEPLAY.OBJ|K:\SWINBURNE\2016\SEMESTER 2\SOURCETREE_GAMESPROGRAMMING\SPIKE 11_12\ZORKISHOO_2\ZORKISHOO_2\X64\DEBUG\HALLOFAME.OBJ|K:\SWINBURNE\2016\SEMESTER 2\SOURCETREE_GAMESPROGRAMMING\SPIKE 11_12\ZORKISHOO_2\ZORKISHOO_2\X64\DEBUG\HEALTHCOMPONENT.OBJ|K:\SWINBURNE\2016\SEMESTER 2\SOURCETREE_GAMESPROGRAMMING\SPIKE 11_12\ZORKISHOO_2\ZORKISHOO_2\X64\DEBUG\HELP.OBJ|K:\SWINBURNE\2016\SEMESTER 2\SOURCETREE_GAMESPROGRAMMING\SPIKE 11_12\ZORKISHOO_2\ZORKISHOO_2\X64\DEBUG\HIGHSCORE.OBJ|K:\SWINBURNE\2016\SEMESTER 2\SOURCETREE_GAMESPROGRAMMING\SPIKE 11_12\ZORKISHOO_2\ZORKISHOO_2\X64\DEBUG\INVENTORY.OBJ|K:\SWINBURNE\2016\SEMESTER 2\SOURCETREE_GAMESPROGRAMMING\SPIKE 11_12\ZORKISHOO_2\ZORKISHOO_2\X64\DEBUG\ITEM.OBJ|K:\SWINBURNE\2016\SEMESTER 2\SOURCETREE_GAMESPROGRAMMING\SPIKE 11_12\ZORKISHOO_2\ZORKISHOO_2\X64\DEBUG\LOCATION.OBJ|K:\SWINBURNE\2016\SEMESTER 2\SOURCETREE_GAMESPROGRAMMING\SPIKE 11_12\ZORKISHOO_2\ZORKISHOO_2\X64\DEBUG\MAINMENU.OBJ|K:\SWINBURNE\2016\SEMESTER 2\SOURCETREE_GAMESPROGRAMMING\SPIKE 11_12\ZORKISHOO_2\ZORKISHOO_2\X64\DEBUG\MESSAGE.OBJ|K:\SWINBURNE\2016\SEMESTER 2\SOURCETREE_GAMESPROGRAMMING\SPIKE 11_12\ZORKISHOO_2\ZORKISHOO_2\X64\DEBUG\PATH.OBJ|K:\SWINBURNE\2016\SEMESTER 2\SOURCETREE_GAMESPROGRAMMING\SPIKE 11_12\ZORKISHOO_2\ZORKISHOO_2\X64\DEBUG\PLAYER.OBJ|K:\SWINBURNE\2016\SEMESTER 2\SOURCETREE_GAMESPROGRAMMING\SPIKE 11_12\ZORKISHOO_2\ZORKISHOO_2\X64\DEBUG\SELECTADVENTURE.OBJ|K:\SWINBURNE\2016\SEMESTER 2\SOURCETREE_GAMESPROGRAMMING\SPIKE 11_12\ZORKISHOO_2\ZORKISHOO_2\X64\DEBUG\SETUPADVENTURE.OBJ|K:\SWINBURNE\2016\SEMESTER 2\SOURCETREE_GAMESPROGRAMMING\SPIKE 11_12\ZORKISHOO_2\ZORKISHOO_2\X64\DEBUG\SOURCE.OBJ|K:\SWINBURNE\2016\SEMESTER 2\SOURCETREE_GAMESPROGRAMMING\SPIKE 11_12\ZORKISHOO_2\ZORKISHOO_2\X64\DEBUG\STATE.OBJ|K:\SWINBURNE\2016\SEMESTER 2\SOURCETREE_GAMESPROGRAMMING\SPIKE 11_12\ZORKISHOO_2\ZORKISHOO_2\X64\DEBUG\STATEMANAGER.OBJ
/OUT:"K:\SWINBURNE\2016\SEMESTER 2\SOURCETREE_GAMESPROGRAMMING\SPIKE 11_12\ZORKISHOO_2\X64\DEBUG\ZORKISHOO_2.EXE" /INCREMENTAL /NOLOGO KERNEL32.LIB USER32.LIB GDI32.LIB WINSPOOL.LIB COMDLG32.LIB ADVAPI32.LIB SHELL32.LIB OLE32.LIB OLEAUT32.LIB UUID.LIB ODBC32.LIB ODBCCP32.LIB /MANIFEST /MANIFESTUAC:"level='asInvoker' uiAccess='false'" /manifest:embed /DEBUG /PDB:"K:\SWINBURNE\2016\SEMESTER 2\SOURCETREE_GAMESPROGRAMMING\SPIKE 11_12\ZORKISHOO_2\X64\DEBUG\ZORKISHOO_2.PDB" /SUBSYSTEM:CONSOLE /TLBID:1 /DYNAMICBASE /NXCOMPAT /IMPLIB:"K:\SWINBURNE\2016\SEMESTER 2\SOURCETREE_GAMESPROGRAMMING\SPIKE 11_12\ZORKISHOO_2\X64\DEBUG\ZORKISHOO_2.LIB" /MACHINE:X64 X64\DEBUG\ABOUT.OBJX64\DEBUG\ADVENTURE.OBJX64\DEBUG\ATTACKCOMPONANT.OBJX64\DEBUG\BAG.OBJX64\DEBUG\BANANA.OBJX64\DEBUG\BLACKBOARD.OBJX64\DEBUG\COMMANDDOER.OBJX64\DEBUG\COMMANDREADER.OBJX64\DEBUG\ENEMY.OBJX64\DEBUG\GAMEMAIN.OBJX64\DEBUG\GAMEPLAY.OBJX64\DEBUG\HALLOFAME.OBJX64\DEBUG\HEALTHCOMPONENT.OBJX64\DEBUG\HELP.OBJX64\DEBUG\HIGHSCORE.OBJX64\DEBUG\INVENTORY.OBJX64\DEBUG\ITEM.OBJX64\DEBUG\LOCATION.OBJX64\DEBUG\MAINMENU.OBJX64\DEBUG\MESSAGE.OBJX64\DEBUG\PATH.OBJX64\DEBUG\PLAYER.OBJX64\DEBUG\SELECTADVENTURE.OBJX64\DEBUG\SETUPADVENTURE.OBJX64\DEBUG\SOURCE.OBJX64\DEBUG\STATE.OBJX64\DEBUG\STATEMANAGER.OBJ
^K:\SWINBURNE\2016\SEMESTER 2\SOURCETREE_GAMESPROGRAMMING\SPIKE 10_11_12\ZORKISHOO_2\ZORKISHOO_2\X64\DEBUG\ABOUT.OBJ|K:\SWINBURNE\2016\SEMESTER 2\SOURCETREE_GAMESPROGRAMMING\SPIKE 10_11_12\ZORKISHOO_2\ZORKISHOO_2\X64\DEBUG\ADVENTURE.OBJ|K:\SWINBURNE\2016\SEMESTER 2\SOURCETREE_GAMESPROGRAMMING\SPIKE 10_11_12\ZORKISHOO_2\ZORKISHOO_2\X64\DEBUG\ATTACKCOMPONANT.OBJ|K:\SWINBURNE\2016\SEMESTER 2\SOURCETREE_GAMESPROGRAMMING\SPIKE 10_11_12\ZORKISHOO_2\ZORKISHOO_2\X64\DEBUG\BAG.OBJ|K:\SWINBURNE\2016\SEMESTER 2\SOURCETREE_GAMESPROGRAMMING\SPIKE 10_11_12\ZORKISHOO_2\ZORKISHOO_2\X64\DEBUG\BANANA.OBJ|K:\SWINBURNE\2016\SEMESTER 2\SOURCETREE_GAMESPROGRAMMING\SPIKE 10_11_12\ZORKISHOO_2\ZORKISHOO_2\X64\DEBUG\BLACKBOARD.OBJ|K:\SWINBURNE\2016\SEMESTER 2\SOURCETREE_GAMESPROGRAMMING\SPIKE 10_11_12\ZORKISHOO_2\ZORKISHOO_2\X64\DEBUG\COMMANDDOER.OBJ|K:\SWINBURNE\2016\SEMESTER 2\SOURCETREE_GAMESPROGRAMMING\SPIKE 10_11_12\ZORKISHOO_2\ZORKISHOO_2\X64\DEBUG\COMMANDREADER.OBJ|K:\SWINBURNE\2016\SEMESTER 2\SOURCETREE_GAMESPROGRAMMING\SPIKE 10_11_12\ZORKISHOO_2\ZORKISHOO_2\X64\DEBUG\ENEMY.OBJ|K:\SWINBURNE\2016\SEMESTER 2\SOURCETREE_GAMESPROGRAMMING\SPIKE 10_11_12\ZORKISHOO_2\ZORKISHOO_2\X64\DEBUG\GAMEMAIN.OBJ|K:\SWINBURNE\2016\SEMESTER 2\SOURCETREE_GAMESPROGRAMMING\SPIKE 10_11_12\ZORKISHOO_2\ZORKISHOO_2\X64\DEBUG\GAMEPLAY.OBJ|K:\SWINBURNE\2016\SEMESTER 2\SOURCETREE_GAMESPROGRAMMING\SPIKE 10_11_12\ZORKISHOO_2\ZORKISHOO_2\X64\DEBUG\HALLOFAME.OBJ|K:\SWINBURNE\2016\SEMESTER 2\SOURCETREE_GAMESPROGRAMMING\SPIKE 10_11_12\ZORKISHOO_2\ZORKISHOO_2\X64\DEBUG\HEALTHCOMPONENT.OBJ|K:\SWINBURNE\2016\SEMESTER 2\SOURCETREE_GAMESPROGRAMMING\SPIKE 10_11_12\ZORKISHOO_2\ZORKISHOO_2\X64\DEBUG\HELP.OBJ|K:\SWINBURNE\2016\SEMESTER 2\SOURCETREE_GAMESPROGRAMMING\SPIKE 10_11_12\ZORKISHOO_2\ZORKISHOO_2\X64\DEBUG\HIGHSCORE.OBJ|K:\SWINBURNE\2016\SEMESTER 2\SOURCETREE_GAMESPROGRAMMING\SPIKE 10_11_12\ZORKISHOO_2\ZORKISHOO_2\X64\DEBUG\INVENTORY.OBJ|K:\SWINBURNE\2016\SEMESTER 2\SOURCETREE_GAMESPROGRAMMING\SPIKE 10_11_12\ZORKISHOO_2\ZORKISHOO_2\X64\DEBUG\ITEM.OBJ|K:\SWINBURNE\2016\SEMESTER 2\SOURCETREE_GAMESPROGRAMMING\SPIKE 10_11_12\ZORKISHOO_2\ZORKISHOO_2\X64\DEBUG\LOCATION.OBJ|K:\SWINBURNE\2016\SEMESTER 2\SOURCETREE_GAMESPROGRAMMING\SPIKE 10_11_12\ZORKISHOO_2\ZORKISHOO_2\X64\DEBUG\MAINMENU.OBJ|K:\SWINBURNE\2016\SEMESTER 2\SOURCETREE_GAMESPROGRAMMING\SPIKE 10_11_12\ZORKISHOO_2\ZORKISHOO_2\X64\DEBUG\MESSAGE.OBJ|K:\SWINBURNE\2016\SEMESTER 2\SOURCETREE_GAMESPROGRAMMING\SPIKE 10_11_12\ZORKISHOO_2\ZORKISHOO_2\X64\DEBUG\PATH.OBJ|K:\SWINBURNE\2016\SEMESTER 2\SOURCETREE_GAMESPROGRAMMING\SPIKE 10_11_12\ZORKISHOO_2\ZORKISHOO_2\X64\DEBUG\PLAYER.OBJ|K:\SWINBURNE\2016\SEMESTER 2\SOURCETREE_GAMESPROGRAMMING\SPIKE 10_11_12\ZORKISHOO_2\ZORKISHOO_2\X64\DEBUG\SELECTADVENTURE.OBJ|K:\SWINBURNE\2016\SEMESTER 2\SOURCETREE_GAMESPROGRAMMING\SPIKE 10_11_12\ZORKISHOO_2\ZORKISHOO_2\X64\DEBUG\SETUPADVENTURE.OBJ|K:\SWINBURNE\2016\SEMESTER 2\SOURCETREE_GAMESPROGRAMMING\SPIKE 10_11_12\ZORKISHOO_2\ZORKISHOO_2\X64\DEBUG\SOURCE.OBJ|K:\SWINBURNE\2016\SEMESTER 2\SOURCETREE_GAMESPROGRAMMING\SPIKE 10_11_12\ZORKISHOO_2\ZORKISHOO_2\X64\DEBUG\STATE.OBJ|K:\SWINBURNE\2016\SEMESTER 2\SOURCETREE_GAMESPROGRAMMING\SPIKE 10_11_12\ZORKISHOO_2\ZORKISHOO_2\X64\DEBUG\STATEMANAGER.OBJ
/OUT:"K:\SWINBURNE\2016\SEMESTER 2\SOURCETREE_GAMESPROGRAMMING\SPIKE 10_11_12\ZORKISHOO_2\X64\DEBUG\ZORKISHOO_2.EXE" /INCREMENTAL /NOLOGO KERNEL32.LIB USER32.LIB GDI32.LIB WINSPOOL.LIB COMDLG32.LIB ADVAPI32.LIB SHELL32.LIB OLE32.LIB OLEAUT32.LIB UUID.LIB ODBC32.LIB ODBCCP32.LIB /MANIFEST /MANIFESTUAC:"level='asInvoker' uiAccess='false'" /manifest:embed /DEBUG /PDB:"K:\SWINBURNE\2016\SEMESTER 2\SOURCETREE_GAMESPROGRAMMING\SPIKE 10_11_12\ZORKISHOO_2\X64\DEBUG\ZORKISHOO_2.PDB" /SUBSYSTEM:CONSOLE /TLBID:1 /DYNAMICBASE /NXCOMPAT /IMPLIB:"K:\SWINBURNE\2016\SEMESTER 2\SOURCETREE_GAMESPROGRAMMING\SPIKE 10_11_12\ZORKISHOO_2\X64\DEBUG\ZORKISHOO_2.LIB" /MACHINE:X64 X64\DEBUG\ABOUT.OBJX64\DEBUG\ADVENTURE.OBJX64\DEBUG\ATTACKCOMPONANT.OBJX64\DEBUG\BAG.OBJX64\DEBUG\BANANA.OBJX64\DEBUG\BLACKBOARD.OBJX64\DEBUG\COMMANDDOER.OBJX64\DEBUG\COMMANDREADER.OBJX64\DEBUG\ENEMY.OBJX64\DEBUG\GAMEMAIN.OBJX64\DEBUG\GAMEPLAY.OBJX64\DEBUG\HALLOFAME.OBJX64\DEBUG\HEALTHCOMPONENT.OBJX64\DEBUG\HELP.OBJX64\DEBUG\HIGHSCORE.OBJX64\DEBUG\INVENTORY.OBJX64\DEBUG\ITEM.OBJX64\DEBUG\LOCATION.OBJX64\DEBUG\MAINMENU.OBJX64\DEBUG\MESSAGE.OBJX64\DEBUG\PATH.OBJX64\DEBUG\PLAYER.OBJX64\DEBUG\SELECTADVENTURE.OBJX64\DEBUG\SETUPADVENTURE.OBJX64\DEBUG\SOURCE.OBJX64\DEBUG\STATE.OBJX64\DEBUG\STATEMANAGER.OBJ
