^K:\SWINBURNE\2016\SEMESTER 2\GAMES PROGRAMMING\ZORKISHOO_2\ZORKISHOO_2\DEBUG\ABOUT.OBJ|K:\SWINBURNE\2016\SEMESTER 2\GAMES PROGRAMMING\ZORKISHOO_2\ZORKISHOO_2\DEBUG\GAMEMAIN.OBJ|K:\SWINBURNE\2016\SEMESTER 2\GAMES PROGRAMMING\ZORKISHOO_2\ZORKISHOO_2\DEBUG\GAMEPLAY.OBJ|K:\SWINBURNE\2016\SEMESTER 2\GAMES PROGRAMMING\ZORKISHOO_2\ZORKISHOO_2\DEBUG\HALLOFAME.OBJ|K:\SWINBURNE\2016\SEMESTER 2\GAMES PROGRAMMING\ZORKISHOO_2\ZORKISHOO_2\DEBUG\HELP.OBJ|K:\SWINBURNE\2016\SEMESTER 2\GAMES PROGRAMMING\ZORKISHOO_2\ZORKISHOO_2\DEBUG\HIGHSCORE.OBJ|K:\SWINBURNE\2016\SEMESTER 2\GAMES PROGRAMMING\ZORKISHOO_2\ZORKISHOO_2\DEBUG\MAINMENU.OBJ|K:\SWINBURNE\2016\SEMESTER 2\GAMES PROGRAMMING\ZORKISHOO_2\ZORKISHOO_2\DEBUG\SELECTADVENTURE.OBJ|K:\SWINBURNE\2016\SEMESTER 2\GAMES PROGRAMMING\ZORKISHOO_2\ZORKISHOO_2\DEBUG\SOURCE.OBJ|K:\SWINBURNE\2016\SEMESTER 2\GAMES PROGRAMMING\ZORKISHOO_2\ZORKISHOO_2\DEBUG\STATE.OBJ|K:\SWINBURNE\2016\SEMESTER 2\GAMES PROGRAMMING\ZORKISHOO_2\ZORKISHOO_2\DEBUG\STATEMANAGER.OBJ
K:\SWINBURNE\2016\SEMESTER 2\GAMES PROGRAMMING\ZORKISHOO_2\DEBUG\ZORKISHOO_2.ILK
K:\SWINBURNE\2016\SEMESTER 2\GAMES PROGRAMMING\ZORKISHOO_2\DEBUG\ZORKISHOO_2.EXE
K:\SWINBURNE\2016\SEMESTER 2\GAMES PROGRAMMING\ZORKISHOO_2\DEBUG\ZORKISHOO_2.PDB
^K:\SWINBURNE\2016\SEMESTER 2\SOURCETREE_GAMESPROGRAMMING\SPIKE 5\ZORKISHOO_2\ZORKISHOO_2\DEBUG\ABOUT.OBJ|K:\SWINBURNE\2016\SEMESTER 2\SOURCETREE_GAMESPROGRAMMING\SPIKE 5\ZORKISHOO_2\ZORKISHOO_2\DEBUG\GAMEMAIN.OBJ|K:\SWINBURNE\2016\SEMESTER 2\SOURCETREE_GAMESPROGRAMMING\SPIKE 5\ZORKISHOO_2\ZORKISHOO_2\DEBUG\GAMEPLAY.OBJ|K:\SWINBURNE\2016\SEMESTER 2\SOURCETREE_GAMESPROGRAMMING\SPIKE 5\ZORKISHOO_2\ZORKISHOO_2\DEBUG\HALLOFAME.OBJ|K:\SWINBURNE\2016\SEMESTER 2\SOURCETREE_GAMESPROGRAMMING\SPIKE 5\ZORKISHOO_2\ZORKISHOO_2\DEBUG\HELP.OBJ|K:\SWINBURNE\2016\SEMESTER 2\SOURCETREE_GAMESPROGRAMMING\SPIKE 5\ZORKISHOO_2\ZORKISHOO_2\DEBUG\HIGHSCORE.OBJ|K:\SWINBURNE\2016\SEMESTER 2\SOURCETREE_GAMESPROGRAMMING\SPIKE 5\ZORKISHOO_2\ZORKISHOO_2\DEBUG\MAINMENU.OBJ|K:\SWINBURNE\2016\SEMESTER 2\SOURCETREE_GAMESPROGRAMMING\SPIKE 5\ZORKISHOO_2\ZORKISHOO_2\DEBUG\SELECTADVENTURE.OBJ|K:\SWINBURNE\2016\SEMESTER 2\SOURCETREE_GAMESPROGRAMMING\SPIKE 5\ZORKISHOO_2\ZORKISHOO_2\DEBUG\SOURCE.OBJ|K:\SWINBURNE\2016\SEMESTER 2\SOURCETREE_GAMESPROGRAMMING\SPIKE 5\ZORKISHOO_2\ZORKISHOO_2\DEBUG\STATE.OBJ|K:\SWINBURNE\2016\SEMESTER 2\SOURCETREE_GAMESPROGRAMMING\SPIKE 5\ZORKISHOO_2\ZORKISHOO_2\DEBUG\STATEMANAGER.OBJ
K:\SWINBURNE\2016\SEMESTER 2\SOURCETREE_GAMESPROGRAMMING\SPIKE 5\ZORKISHOO_2\DEBUG\ZORKISHOO_2.ILK
K:\SWINBURNE\2016\SEMESTER 2\SOURCETREE_GAMESPROGRAMMING\SPIKE 5\ZORKISHOO_2\DEBUG\ZORKISHOO_2.EXE
K:\SWINBURNE\2016\SEMESTER 2\SOURCETREE_GAMESPROGRAMMING\SPIKE 5\ZORKISHOO_2\DEBUG\ZORKISHOO_2.PDB
