^E:\SWINBURNE\2016\SEMESTER 2\GAMES PROGRAMMING\ZORKISHOO_2\ZORKISHOO_2\DEBUG\ABOUT.OBJ|E:\SWINBURNE\2016\SEMESTER 2\GAMES PROGRAMMING\ZORKISHOO_2\ZORKISHOO_2\DEBUG\GAMEMAIN.OBJ|E:\SWINBURNE\2016\SEMESTER 2\GAMES PROGRAMMING\ZORKISHOO_2\ZORKISHOO_2\DEBUG\MAINMENU.OBJ|E:\SWINBURNE\2016\SEMESTER 2\GAMES PROGRAMMING\ZORKISHOO_2\ZORKISHOO_2\DEBUG\SOURCE.OBJ|E:\SWINBURNE\2016\SEMESTER 2\GAMES PROGRAMMING\ZORKISHOO_2\ZORKISHOO_2\DEBUG\STATE.OBJ|E:\SWINBURNE\2016\SEMESTER 2\GAMES PROGRAMMING\ZORKISHOO_2\ZORKISHOO_2\DEBUG\STATEMANAGER.OBJ
/OUT:"E:\SWINBURNE\2016\SEMESTER 2\GAMES PROGRAMMING\ZORKISHOO_2\DEBUG\ZORKISHOO_2.EXE" /INCREMENTAL /NOLOGO KERNEL32.LIB USER32.LIB GDI32.LIB WINSPOOL.LIB COMDLG32.LIB ADVAPI32.LIB SHELL32.LIB OLE32.LIB OLEAUT32.LIB UUID.LIB ODBC32.LIB ODBCCP32.LIB /MANIFEST /MANIFESTUAC:"level='asInvoker' uiAccess='false'" /manifest:embed /Debug /PDB:"E:\SWINBURNE\2016\SEMESTER 2\GAMES PROGRAMMING\ZORKISHOO_2\DEBUG\ZORKISHOO_2.PDB" /SUBSYSTEM:CONSOLE /TLBID:1 /DYNAMICBASE /NXCOMPAT /IMPLIB:"E:\SWINBURNE\2016\SEMESTER 2\GAMES PROGRAMMING\ZORKISHOO_2\DEBUG\ZORKISHOO_2.LIB" /MACHINE:X86 DEBUG\ABOUT.OBJDEBUG\GAMEMAIN.OBJDEBUG\MAINMENU.OBJDEBUG\SOURCE.OBJDEBUG\STATE.OBJDEBUG\STATEMANAGER.OBJ
^K:\SWINBURNE\2016\SEMESTER 2\GAMES PROGRAMMING\ZORKISHOO_2\ZORKISHOO_2\DEBUG\ABOUT.OBJ|K:\SWINBURNE\2016\SEMESTER 2\GAMES PROGRAMMING\ZORKISHOO_2\ZORKISHOO_2\DEBUG\GAMEMAIN.OBJ|K:\SWINBURNE\2016\SEMESTER 2\GAMES PROGRAMMING\ZORKISHOO_2\ZORKISHOO_2\DEBUG\GAMEPLAY.OBJ|K:\SWINBURNE\2016\SEMESTER 2\GAMES PROGRAMMING\ZORKISHOO_2\ZORKISHOO_2\DEBUG\HALLOFAME.OBJ|K:\SWINBURNE\2016\SEMESTER 2\GAMES PROGRAMMING\ZORKISHOO_2\ZORKISHOO_2\DEBUG\HELP.OBJ|K:\SWINBURNE\2016\SEMESTER 2\GAMES PROGRAMMING\ZORKISHOO_2\ZORKISHOO_2\DEBUG\HIGHSCORE.OBJ|K:\SWINBURNE\2016\SEMESTER 2\GAMES PROGRAMMING\ZORKISHOO_2\ZORKISHOO_2\DEBUG\MAINMENU.OBJ|K:\SWINBURNE\2016\SEMESTER 2\GAMES PROGRAMMING\ZORKISHOO_2\ZORKISHOO_2\DEBUG\SELECTADVENTURE.OBJ|K:\SWINBURNE\2016\SEMESTER 2\GAMES PROGRAMMING\ZORKISHOO_2\ZORKISHOO_2\DEBUG\SOURCE.OBJ|K:\SWINBURNE\2016\SEMESTER 2\GAMES PROGRAMMING\ZORKISHOO_2\ZORKISHOO_2\DEBUG\STATE.OBJ|K:\SWINBURNE\2016\SEMESTER 2\GAMES PROGRAMMING\ZORKISHOO_2\ZORKISHOO_2\DEBUG\STATEMANAGER.OBJ
/OUT:"K:\SWINBURNE\2016\SEMESTER 2\GAMES PROGRAMMING\ZORKISHOO_2\DEBUG\ZORKISHOO_2.EXE" /INCREMENTAL /NOLOGO KERNEL32.LIB USER32.LIB GDI32.LIB WINSPOOL.LIB COMDLG32.LIB ADVAPI32.LIB SHELL32.LIB OLE32.LIB OLEAUT32.LIB UUID.LIB ODBC32.LIB ODBCCP32.LIB /MANIFEST /MANIFESTUAC:"level='asInvoker' uiAccess='false'" /manifest:embed /DEBUG /PDB:"K:\SWINBURNE\2016\SEMESTER 2\GAMES PROGRAMMING\ZORKISHOO_2\DEBUG\ZORKISHOO_2.PDB" /SUBSYSTEM:CONSOLE /TLBID:1 /DYNAMICBASE /NXCOMPAT /IMPLIB:"K:\SWINBURNE\2016\SEMESTER 2\GAMES PROGRAMMING\ZORKISHOO_2\DEBUG\ZORKISHOO_2.LIB" /MACHINE:X86 DEBUG\ABOUT.OBJDEBUG\GAMEMAIN.OBJDEBUG\GAMEPLAY.OBJDEBUG\HALLOFAME.OBJDEBUG\HELP.OBJDEBUG\HIGHSCORE.OBJDEBUG\MAINMENU.OBJDEBUG\SELECTADVENTURE.OBJDEBUG\SOURCE.OBJDEBUG\STATE.OBJDEBUG\STATEMANAGER.OBJ
^K:\SWINBURNE\2016\SEMESTER 2\GAMES PROGRAMMING\SPIKE 6\ZORKISHOO_2\ZORKISHOO_2\DEBUG\ABOUT.OBJ|K:\SWINBURNE\2016\SEMESTER 2\GAMES PROGRAMMING\SPIKE 6\ZORKISHOO_2\ZORKISHOO_2\DEBUG\GAMEMAIN.OBJ|K:\SWINBURNE\2016\SEMESTER 2\GAMES PROGRAMMING\SPIKE 6\ZORKISHOO_2\ZORKISHOO_2\DEBUG\GAMEPLAY.OBJ|K:\SWINBURNE\2016\SEMESTER 2\GAMES PROGRAMMING\SPIKE 6\ZORKISHOO_2\ZORKISHOO_2\DEBUG\HALLOFAME.OBJ|K:\SWINBURNE\2016\SEMESTER 2\GAMES PROGRAMMING\SPIKE 6\ZORKISHOO_2\ZORKISHOO_2\DEBUG\HELP.OBJ|K:\SWINBURNE\2016\SEMESTER 2\GAMES PROGRAMMING\SPIKE 6\ZORKISHOO_2\ZORKISHOO_2\DEBUG\HIGHSCORE.OBJ|K:\SWINBURNE\2016\SEMESTER 2\GAMES PROGRAMMING\SPIKE 6\ZORKISHOO_2\ZORKISHOO_2\DEBUG\INVENTORY.OBJ|K:\SWINBURNE\2016\SEMESTER 2\GAMES PROGRAMMING\SPIKE 6\ZORKISHOO_2\ZORKISHOO_2\DEBUG\ITEM.OBJ|K:\SWINBURNE\2016\SEMESTER 2\GAMES PROGRAMMING\SPIKE 6\ZORKISHOO_2\ZORKISHOO_2\DEBUG\MAINMENU.OBJ|K:\SWINBURNE\2016\SEMESTER 2\GAMES PROGRAMMING\SPIKE 6\ZORKISHOO_2\ZORKISHOO_2\DEBUG\PLAYER.OBJ|K:\SWINBURNE\2016\SEMESTER 2\GAMES PROGRAMMING\SPIKE 6\ZORKISHOO_2\ZORKISHOO_2\DEBUG\SELECTADVENTURE.OBJ|K:\SWINBURNE\2016\SEMESTER 2\GAMES PROGRAMMING\SPIKE 6\ZORKISHOO_2\ZORKISHOO_2\DEBUG\SOURCE.OBJ|K:\SWINBURNE\2016\SEMESTER 2\GAMES PROGRAMMING\SPIKE 6\ZORKISHOO_2\ZORKISHOO_2\DEBUG\STATE.OBJ|K:\SWINBURNE\2016\SEMESTER 2\GAMES PROGRAMMING\SPIKE 6\ZORKISHOO_2\ZORKISHOO_2\DEBUG\STATEMANAGER.OBJ
/OUT:"K:\SWINBURNE\2016\SEMESTER 2\GAMES PROGRAMMING\SPIKE 6\ZORKISHOO_2\DEBUG\ZORKISHOO_2.EXE" /INCREMENTAL /NOLOGO KERNEL32.LIB USER32.LIB GDI32.LIB WINSPOOL.LIB COMDLG32.LIB ADVAPI32.LIB SHELL32.LIB OLE32.LIB OLEAUT32.LIB UUID.LIB ODBC32.LIB ODBCCP32.LIB /MANIFEST /MANIFESTUAC:"level='asInvoker' uiAccess='false'" /manifest:embed /DEBUG /PDB:"K:\SWINBURNE\2016\SEMESTER 2\GAMES PROGRAMMING\SPIKE 6\ZORKISHOO_2\DEBUG\ZORKISHOO_2.PDB" /SUBSYSTEM:CONSOLE /TLBID:1 /DYNAMICBASE /NXCOMPAT /IMPLIB:"K:\SWINBURNE\2016\SEMESTER 2\GAMES PROGRAMMING\SPIKE 6\ZORKISHOO_2\DEBUG\ZORKISHOO_2.LIB" /MACHINE:X86 DEBUG\ABOUT.OBJDEBUG\GAMEMAIN.OBJDEBUG\GAMEPLAY.OBJDEBUG\HALLOFAME.OBJDEBUG\HELP.OBJDEBUG\HIGHSCORE.OBJDEBUG\INVENTORY.OBJDEBUG\ITEM.OBJDEBUG\MAINMENU.OBJDEBUG\PLAYER.OBJDEBUG\SELECTADVENTURE.OBJDEBUG\SOURCE.OBJDEBUG\STATE.OBJDEBUG\STATEMANAGER.OBJ
^F:\SWINBURNE\2016\SEMESTER 2\GAMES PROGRAMMING\SPIKE 6\ZORKISHOO_2\ZORKISHOO_2\DEBUG\ABOUT.OBJ|F:\SWINBURNE\2016\SEMESTER 2\GAMES PROGRAMMING\SPIKE 6\ZORKISHOO_2\ZORKISHOO_2\DEBUG\GAMEMAIN.OBJ|F:\SWINBURNE\2016\SEMESTER 2\GAMES PROGRAMMING\SPIKE 6\ZORKISHOO_2\ZORKISHOO_2\DEBUG\GAMEPLAY.OBJ|F:\SWINBURNE\2016\SEMESTER 2\GAMES PROGRAMMING\SPIKE 6\ZORKISHOO_2\ZORKISHOO_2\DEBUG\HALLOFAME.OBJ|F:\SWINBURNE\2016\SEMESTER 2\GAMES PROGRAMMING\SPIKE 6\ZORKISHOO_2\ZORKISHOO_2\DEBUG\HELP.OBJ|F:\SWINBURNE\2016\SEMESTER 2\GAMES PROGRAMMING\SPIKE 6\ZORKISHOO_2\ZORKISHOO_2\DEBUG\HIGHSCORE.OBJ|F:\SWINBURNE\2016\SEMESTER 2\GAMES PROGRAMMING\SPIKE 6\ZORKISHOO_2\ZORKISHOO_2\DEBUG\INVENTORY.OBJ|F:\SWINBURNE\2016\SEMESTER 2\GAMES PROGRAMMING\SPIKE 6\ZORKISHOO_2\ZORKISHOO_2\DEBUG\ITEM.OBJ|F:\SWINBURNE\2016\SEMESTER 2\GAMES PROGRAMMING\SPIKE 6\ZORKISHOO_2\ZORKISHOO_2\DEBUG\MAINMENU.OBJ|F:\SWINBURNE\2016\SEMESTER 2\GAMES PROGRAMMING\SPIKE 6\ZORKISHOO_2\ZORKISHOO_2\DEBUG\PLAYER.OBJ|F:\SWINBURNE\2016\SEMESTER 2\GAMES PROGRAMMING\SPIKE 6\ZORKISHOO_2\ZORKISHOO_2\DEBUG\SELECTADVENTURE.OBJ|F:\SWINBURNE\2016\SEMESTER 2\GAMES PROGRAMMING\SPIKE 6\ZORKISHOO_2\ZORKISHOO_2\DEBUG\SOURCE.OBJ|F:\SWINBURNE\2016\SEMESTER 2\GAMES PROGRAMMING\SPIKE 6\ZORKISHOO_2\ZORKISHOO_2\DEBUG\STATE.OBJ|F:\SWINBURNE\2016\SEMESTER 2\GAMES PROGRAMMING\SPIKE 6\ZORKISHOO_2\ZORKISHOO_2\DEBUG\STATEMANAGER.OBJ
/OUT:"F:\SWINBURNE\2016\SEMESTER 2\GAMES PROGRAMMING\SPIKE 6\ZORKISHOO_2\DEBUG\ZORKISHOO_2.EXE" /INCREMENTAL /NOLOGO KERNEL32.LIB USER32.LIB GDI32.LIB WINSPOOL.LIB COMDLG32.LIB ADVAPI32.LIB SHELL32.LIB OLE32.LIB OLEAUT32.LIB UUID.LIB ODBC32.LIB ODBCCP32.LIB /MANIFEST /MANIFESTUAC:"level='asInvoker' uiAccess='false'" /manifest:embed /Debug /PDB:"F:\SWINBURNE\2016\SEMESTER 2\GAMES PROGRAMMING\SPIKE 6\ZORKISHOO_2\DEBUG\ZORKISHOO_2.PDB" /SUBSYSTEM:CONSOLE /TLBID:1 /DYNAMICBASE /NXCOMPAT /IMPLIB:"F:\SWINBURNE\2016\SEMESTER 2\GAMES PROGRAMMING\SPIKE 6\ZORKISHOO_2\DEBUG\ZORKISHOO_2.LIB" /MACHINE:X86 DEBUG\ABOUT.OBJDEBUG\GAMEMAIN.OBJDEBUG\GAMEPLAY.OBJDEBUG\HALLOFAME.OBJDEBUG\HELP.OBJDEBUG\HIGHSCORE.OBJDEBUG\INVENTORY.OBJDEBUG\ITEM.OBJDEBUG\MAINMENU.OBJDEBUG\PLAYER.OBJDEBUG\SELECTADVENTURE.OBJDEBUG\SOURCE.OBJDEBUG\STATE.OBJDEBUG\STATEMANAGER.OBJ
^E:\SWINBURNE\2016\SEMESTER 2\GAMES PROGRAMMING\SPIKE 6\ZORKISHOO_2\ZORKISHOO_2\DEBUG\ABOUT.OBJ|E:\SWINBURNE\2016\SEMESTER 2\GAMES PROGRAMMING\SPIKE 6\ZORKISHOO_2\ZORKISHOO_2\DEBUG\GAMEMAIN.OBJ|E:\SWINBURNE\2016\SEMESTER 2\GAMES PROGRAMMING\SPIKE 6\ZORKISHOO_2\ZORKISHOO_2\DEBUG\GAMEPLAY.OBJ|E:\SWINBURNE\2016\SEMESTER 2\GAMES PROGRAMMING\SPIKE 6\ZORKISHOO_2\ZORKISHOO_2\DEBUG\HALLOFAME.OBJ|E:\SWINBURNE\2016\SEMESTER 2\GAMES PROGRAMMING\SPIKE 6\ZORKISHOO_2\ZORKISHOO_2\DEBUG\HELP.OBJ|E:\SWINBURNE\2016\SEMESTER 2\GAMES PROGRAMMING\SPIKE 6\ZORKISHOO_2\ZORKISHOO_2\DEBUG\HIGHSCORE.OBJ|E:\SWINBURNE\2016\SEMESTER 2\GAMES PROGRAMMING\SPIKE 6\ZORKISHOO_2\ZORKISHOO_2\DEBUG\INVENTORY.OBJ|E:\SWINBURNE\2016\SEMESTER 2\GAMES PROGRAMMING\SPIKE 6\ZORKISHOO_2\ZORKISHOO_2\DEBUG\ITEM.OBJ|E:\SWINBURNE\2016\SEMESTER 2\GAMES PROGRAMMING\SPIKE 6\ZORKISHOO_2\ZORKISHOO_2\DEBUG\MAINMENU.OBJ|E:\SWINBURNE\2016\SEMESTER 2\GAMES PROGRAMMING\SPIKE 6\ZORKISHOO_2\ZORKISHOO_2\DEBUG\PLAYER.OBJ|E:\SWINBURNE\2016\SEMESTER 2\GAMES PROGRAMMING\SPIKE 6\ZORKISHOO_2\ZORKISHOO_2\DEBUG\SELECTADVENTURE.OBJ|E:\SWINBURNE\2016\SEMESTER 2\GAMES PROGRAMMING\SPIKE 6\ZORKISHOO_2\ZORKISHOO_2\DEBUG\SOURCE.OBJ|E:\SWINBURNE\2016\SEMESTER 2\GAMES PROGRAMMING\SPIKE 6\ZORKISHOO_2\ZORKISHOO_2\DEBUG\STATE.OBJ|E:\SWINBURNE\2016\SEMESTER 2\GAMES PROGRAMMING\SPIKE 6\ZORKISHOO_2\ZORKISHOO_2\DEBUG\STATEMANAGER.OBJ
/OUT:"E:\SWINBURNE\2016\SEMESTER 2\GAMES PROGRAMMING\SPIKE 6\ZORKISHOO_2\DEBUG\ZORKISHOO_2.EXE" /INCREMENTAL /NOLOGO KERNEL32.LIB USER32.LIB GDI32.LIB WINSPOOL.LIB COMDLG32.LIB ADVAPI32.LIB SHELL32.LIB OLE32.LIB OLEAUT32.LIB UUID.LIB ODBC32.LIB ODBCCP32.LIB /MANIFEST /MANIFESTUAC:"level='asInvoker' uiAccess='false'" /manifest:embed /Debug /PDB:"E:\SWINBURNE\2016\SEMESTER 2\GAMES PROGRAMMING\SPIKE 6\ZORKISHOO_2\DEBUG\ZORKISHOO_2.PDB" /SUBSYSTEM:CONSOLE /TLBID:1 /DYNAMICBASE /NXCOMPAT /IMPLIB:"E:\SWINBURNE\2016\SEMESTER 2\GAMES PROGRAMMING\SPIKE 6\ZORKISHOO_2\DEBUG\ZORKISHOO_2.LIB" /MACHINE:X86 DEBUG\ABOUT.OBJDEBUG\GAMEMAIN.OBJDEBUG\GAMEPLAY.OBJDEBUG\HALLOFAME.OBJDEBUG\HELP.OBJDEBUG\HIGHSCORE.OBJDEBUG\INVENTORY.OBJDEBUG\ITEM.OBJDEBUG\MAINMENU.OBJDEBUG\PLAYER.OBJDEBUG\SELECTADVENTURE.OBJDEBUG\SOURCE.OBJDEBUG\STATE.OBJDEBUG\STATEMANAGER.OBJ
^K:\SWINBURNE\2016\SEMESTER 2\GAMES PROGRAMMING\SPIKE 7\ZORKISHOO_2\ZORKISHOO_2\DEBUG\ABOUT.OBJ|K:\SWINBURNE\2016\SEMESTER 2\GAMES PROGRAMMING\SPIKE 7\ZORKISHOO_2\ZORKISHOO_2\DEBUG\ADVENTURE.OBJ|K:\SWINBURNE\2016\SEMESTER 2\GAMES PROGRAMMING\SPIKE 7\ZORKISHOO_2\ZORKISHOO_2\DEBUG\GAMEMAIN.OBJ|K:\SWINBURNE\2016\SEMESTER 2\GAMES PROGRAMMING\SPIKE 7\ZORKISHOO_2\ZORKISHOO_2\DEBUG\GAMEPLAY.OBJ|K:\SWINBURNE\2016\SEMESTER 2\GAMES PROGRAMMING\SPIKE 7\ZORKISHOO_2\ZORKISHOO_2\DEBUG\HALLOFAME.OBJ|K:\SWINBURNE\2016\SEMESTER 2\GAMES PROGRAMMING\SPIKE 7\ZORKISHOO_2\ZORKISHOO_2\DEBUG\HELP.OBJ|K:\SWINBURNE\2016\SEMESTER 2\GAMES PROGRAMMING\SPIKE 7\ZORKISHOO_2\ZORKISHOO_2\DEBUG\HIGHSCORE.OBJ|K:\SWINBURNE\2016\SEMESTER 2\GAMES PROGRAMMING\SPIKE 7\ZORKISHOO_2\ZORKISHOO_2\DEBUG\INVENTORY.OBJ|K:\SWINBURNE\2016\SEMESTER 2\GAMES PROGRAMMING\SPIKE 7\ZORKISHOO_2\ZORKISHOO_2\DEBUG\ITEM.OBJ|K:\SWINBURNE\2016\SEMESTER 2\GAMES PROGRAMMING\SPIKE 7\ZORKISHOO_2\ZORKISHOO_2\DEBUG\LOCATION.OBJ|K:\SWINBURNE\2016\SEMESTER 2\GAMES PROGRAMMING\SPIKE 7\ZORKISHOO_2\ZORKISHOO_2\DEBUG\MAINMENU.OBJ|K:\SWINBURNE\2016\SEMESTER 2\GAMES PROGRAMMING\SPIKE 7\ZORKISHOO_2\ZORKISHOO_2\DEBUG\PATH.OBJ|K:\SWINBURNE\2016\SEMESTER 2\GAMES PROGRAMMING\SPIKE 7\ZORKISHOO_2\ZORKISHOO_2\DEBUG\PLAYER.OBJ|K:\SWINBURNE\2016\SEMESTER 2\GAMES PROGRAMMING\SPIKE 7\ZORKISHOO_2\ZORKISHOO_2\DEBUG\SELECTADVENTURE.OBJ|K:\SWINBURNE\2016\SEMESTER 2\GAMES PROGRAMMING\SPIKE 7\ZORKISHOO_2\ZORKISHOO_2\DEBUG\SOURCE.OBJ|K:\SWINBURNE\2016\SEMESTER 2\GAMES PROGRAMMING\SPIKE 7\ZORKISHOO_2\ZORKISHOO_2\DEBUG\STATE.OBJ|K:\SWINBURNE\2016\SEMESTER 2\GAMES PROGRAMMING\SPIKE 7\ZORKISHOO_2\ZORKISHOO_2\DEBUG\STATEMANAGER.OBJ
/OUT:"K:\SWINBURNE\2016\SEMESTER 2\GAMES PROGRAMMING\SPIKE 7\ZORKISHOO_2\DEBUG\ZORKISHOO_2.EXE" /INCREMENTAL /NOLOGO KERNEL32.LIB USER32.LIB GDI32.LIB WINSPOOL.LIB COMDLG32.LIB ADVAPI32.LIB SHELL32.LIB OLE32.LIB OLEAUT32.LIB UUID.LIB ODBC32.LIB ODBCCP32.LIB /MANIFEST /MANIFESTUAC:"level='asInvoker' uiAccess='false'" /manifest:embed /DEBUG /PDB:"K:\SWINBURNE\2016\SEMESTER 2\GAMES PROGRAMMING\SPIKE 7\ZORKISHOO_2\DEBUG\ZORKISHOO_2.PDB" /SUBSYSTEM:CONSOLE /TLBID:1 /DYNAMICBASE /NXCOMPAT /IMPLIB:"K:\SWINBURNE\2016\SEMESTER 2\GAMES PROGRAMMING\SPIKE 7\ZORKISHOO_2\DEBUG\ZORKISHOO_2.LIB" /MACHINE:X86 DEBUG\ABOUT.OBJDEBUG\ADVENTURE.OBJDEBUG\GAMEMAIN.OBJDEBUG\GAMEPLAY.OBJDEBUG\HALLOFAME.OBJDEBUG\HELP.OBJDEBUG\HIGHSCORE.OBJDEBUG\INVENTORY.OBJDEBUG\ITEM.OBJDEBUG\LOCATION.OBJDEBUG\MAINMENU.OBJDEBUG\PATH.OBJDEBUG\PLAYER.OBJDEBUG\SELECTADVENTURE.OBJDEBUG\SOURCE.OBJDEBUG\STATE.OBJDEBUG\STATEMANAGER.OBJ
^E:\SWINBURNE\2016\SEMESTER 2\GAMES PROGRAMMING\SPIKE 7\ZORKISHOO_2\ZORKISHOO_2\DEBUG\ABOUT.OBJ|E:\SWINBURNE\2016\SEMESTER 2\GAMES PROGRAMMING\SPIKE 7\ZORKISHOO_2\ZORKISHOO_2\DEBUG\ADVENTURE.OBJ|E:\SWINBURNE\2016\SEMESTER 2\GAMES PROGRAMMING\SPIKE 7\ZORKISHOO_2\ZORKISHOO_2\DEBUG\GAMEMAIN.OBJ|E:\SWINBURNE\2016\SEMESTER 2\GAMES PROGRAMMING\SPIKE 7\ZORKISHOO_2\ZORKISHOO_2\DEBUG\GAMEPLAY.OBJ|E:\SWINBURNE\2016\SEMESTER 2\GAMES PROGRAMMING\SPIKE 7\ZORKISHOO_2\ZORKISHOO_2\DEBUG\HALLOFAME.OBJ|E:\SWINBURNE\2016\SEMESTER 2\GAMES PROGRAMMING\SPIKE 7\ZORKISHOO_2\ZORKISHOO_2\DEBUG\HELP.OBJ|E:\SWINBURNE\2016\SEMESTER 2\GAMES PROGRAMMING\SPIKE 7\ZORKISHOO_2\ZORKISHOO_2\DEBUG\HIGHSCORE.OBJ|E:\SWINBURNE\2016\SEMESTER 2\GAMES PROGRAMMING\SPIKE 7\ZORKISHOO_2\ZORKISHOO_2\DEBUG\INVENTORY.OBJ|E:\SWINBURNE\2016\SEMESTER 2\GAMES PROGRAMMING\SPIKE 7\ZORKISHOO_2\ZORKISHOO_2\DEBUG\ITEM.OBJ|E:\SWINBURNE\2016\SEMESTER 2\GAMES PROGRAMMING\SPIKE 7\ZORKISHOO_2\ZORKISHOO_2\DEBUG\LOCATION.OBJ|E:\SWINBURNE\2016\SEMESTER 2\GAMES PROGRAMMING\SPIKE 7\ZORKISHOO_2\ZORKISHOO_2\DEBUG\MAINMENU.OBJ|E:\SWINBURNE\2016\SEMESTER 2\GAMES PROGRAMMING\SPIKE 7\ZORKISHOO_2\ZORKISHOO_2\DEBUG\PATH.OBJ|E:\SWINBURNE\2016\SEMESTER 2\GAMES PROGRAMMING\SPIKE 7\ZORKISHOO_2\ZORKISHOO_2\DEBUG\PLAYER.OBJ|E:\SWINBURNE\2016\SEMESTER 2\GAMES PROGRAMMING\SPIKE 7\ZORKISHOO_2\ZORKISHOO_2\DEBUG\SELECTADVENTURE.OBJ|E:\SWINBURNE\2016\SEMESTER 2\GAMES PROGRAMMING\SPIKE 7\ZORKISHOO_2\ZORKISHOO_2\DEBUG\SOURCE.OBJ|E:\SWINBURNE\2016\SEMESTER 2\GAMES PROGRAMMING\SPIKE 7\ZORKISHOO_2\ZORKISHOO_2\DEBUG\STATE.OBJ|E:\SWINBURNE\2016\SEMESTER 2\GAMES PROGRAMMING\SPIKE 7\ZORKISHOO_2\ZORKISHOO_2\DEBUG\STATEMANAGER.OBJ
/OUT:"E:\SWINBURNE\2016\SEMESTER 2\GAMES PROGRAMMING\SPIKE 7\ZORKISHOO_2\DEBUG\ZORKISHOO_2.EXE" /INCREMENTAL /NOLOGO KERNEL32.LIB USER32.LIB GDI32.LIB WINSPOOL.LIB COMDLG32.LIB ADVAPI32.LIB SHELL32.LIB OLE32.LIB OLEAUT32.LIB UUID.LIB ODBC32.LIB ODBCCP32.LIB /MANIFEST /MANIFESTUAC:"level='asInvoker' uiAccess='false'" /manifest:embed /Debug /PDB:"E:\SWINBURNE\2016\SEMESTER 2\GAMES PROGRAMMING\SPIKE 7\ZORKISHOO_2\DEBUG\ZORKISHOO_2.PDB" /SUBSYSTEM:CONSOLE /TLBID:1 /DYNAMICBASE /NXCOMPAT /IMPLIB:"E:\SWINBURNE\2016\SEMESTER 2\GAMES PROGRAMMING\SPIKE 7\ZORKISHOO_2\DEBUG\ZORKISHOO_2.LIB" /MACHINE:X86 DEBUG\ABOUT.OBJDEBUG\ADVENTURE.OBJDEBUG\GAMEMAIN.OBJDEBUG\GAMEPLAY.OBJDEBUG\HALLOFAME.OBJDEBUG\HELP.OBJDEBUG\HIGHSCORE.OBJDEBUG\INVENTORY.OBJDEBUG\ITEM.OBJDEBUG\LOCATION.OBJDEBUG\MAINMENU.OBJDEBUG\PATH.OBJDEBUG\PLAYER.OBJDEBUG\SELECTADVENTURE.OBJDEBUG\SOURCE.OBJDEBUG\STATE.OBJDEBUG\STATEMANAGER.OBJ
^K:\SWINBURNE\2016\SEMESTER 2\SOURCETREE_GAMESPROGRAMMING\SPIKE 7\ZORKISHOO_2\ZORKISHOO_2\DEBUG\ABOUT.OBJ|K:\SWINBURNE\2016\SEMESTER 2\SOURCETREE_GAMESPROGRAMMING\SPIKE 7\ZORKISHOO_2\ZORKISHOO_2\DEBUG\ADVENTURE.OBJ|K:\SWINBURNE\2016\SEMESTER 2\SOURCETREE_GAMESPROGRAMMING\SPIKE 7\ZORKISHOO_2\ZORKISHOO_2\DEBUG\GAMEMAIN.OBJ|K:\SWINBURNE\2016\SEMESTER 2\SOURCETREE_GAMESPROGRAMMING\SPIKE 7\ZORKISHOO_2\ZORKISHOO_2\DEBUG\GAMEPLAY.OBJ|K:\SWINBURNE\2016\SEMESTER 2\SOURCETREE_GAMESPROGRAMMING\SPIKE 7\ZORKISHOO_2\ZORKISHOO_2\DEBUG\HALLOFAME.OBJ|K:\SWINBURNE\2016\SEMESTER 2\SOURCETREE_GAMESPROGRAMMING\SPIKE 7\ZORKISHOO_2\ZORKISHOO_2\DEBUG\HELP.OBJ|K:\SWINBURNE\2016\SEMESTER 2\SOURCETREE_GAMESPROGRAMMING\SPIKE 7\ZORKISHOO_2\ZORKISHOO_2\DEBUG\HIGHSCORE.OBJ|K:\SWINBURNE\2016\SEMESTER 2\SOURCETREE_GAMESPROGRAMMING\SPIKE 7\ZORKISHOO_2\ZORKISHOO_2\DEBUG\INVENTORY.OBJ|K:\SWINBURNE\2016\SEMESTER 2\SOURCETREE_GAMESPROGRAMMING\SPIKE 7\ZORKISHOO_2\ZORKISHOO_2\DEBUG\ITEM.OBJ|K:\SWINBURNE\2016\SEMESTER 2\SOURCETREE_GAMESPROGRAMMING\SPIKE 7\ZORKISHOO_2\ZORKISHOO_2\DEBUG\LOCATION.OBJ|K:\SWINBURNE\2016\SEMESTER 2\SOURCETREE_GAMESPROGRAMMING\SPIKE 7\ZORKISHOO_2\ZORKISHOO_2\DEBUG\MAINMENU.OBJ|K:\SWINBURNE\2016\SEMESTER 2\SOURCETREE_GAMESPROGRAMMING\SPIKE 7\ZORKISHOO_2\ZORKISHOO_2\DEBUG\PATH.OBJ|K:\SWINBURNE\2016\SEMESTER 2\SOURCETREE_GAMESPROGRAMMING\SPIKE 7\ZORKISHOO_2\ZORKISHOO_2\DEBUG\PLAYER.OBJ|K:\SWINBURNE\2016\SEMESTER 2\SOURCETREE_GAMESPROGRAMMING\SPIKE 7\ZORKISHOO_2\ZORKISHOO_2\DEBUG\SELECTADVENTURE.OBJ|K:\SWINBURNE\2016\SEMESTER 2\SOURCETREE_GAMESPROGRAMMING\SPIKE 7\ZORKISHOO_2\ZORKISHOO_2\DEBUG\SOURCE.OBJ|K:\SWINBURNE\2016\SEMESTER 2\SOURCETREE_GAMESPROGRAMMING\SPIKE 7\ZORKISHOO_2\ZORKISHOO_2\DEBUG\STATE.OBJ|K:\SWINBURNE\2016\SEMESTER 2\SOURCETREE_GAMESPROGRAMMING\SPIKE 7\ZORKISHOO_2\ZORKISHOO_2\DEBUG\STATEMANAGER.OBJ
/OUT:"K:\SWINBURNE\2016\SEMESTER 2\SOURCETREE_GAMESPROGRAMMING\SPIKE 7\ZORKISHOO_2\DEBUG\ZORKISHOO_2.EXE" /INCREMENTAL /NOLOGO KERNEL32.LIB USER32.LIB GDI32.LIB WINSPOOL.LIB COMDLG32.LIB ADVAPI32.LIB SHELL32.LIB OLE32.LIB OLEAUT32.LIB UUID.LIB ODBC32.LIB ODBCCP32.LIB /MANIFEST /MANIFESTUAC:"level='asInvoker' uiAccess='false'" /manifest:embed /DEBUG /PDB:"K:\SWINBURNE\2016\SEMESTER 2\SOURCETREE_GAMESPROGRAMMING\SPIKE 7\ZORKISHOO_2\DEBUG\ZORKISHOO_2.PDB" /SUBSYSTEM:CONSOLE /TLBID:1 /DYNAMICBASE /NXCOMPAT /IMPLIB:"K:\SWINBURNE\2016\SEMESTER 2\SOURCETREE_GAMESPROGRAMMING\SPIKE 7\ZORKISHOO_2\DEBUG\ZORKISHOO_2.LIB" /MACHINE:X86 DEBUG\ABOUT.OBJDEBUG\ADVENTURE.OBJDEBUG\GAMEMAIN.OBJDEBUG\GAMEPLAY.OBJDEBUG\HALLOFAME.OBJDEBUG\HELP.OBJDEBUG\HIGHSCORE.OBJDEBUG\INVENTORY.OBJDEBUG\ITEM.OBJDEBUG\LOCATION.OBJDEBUG\MAINMENU.OBJDEBUG\PATH.OBJDEBUG\PLAYER.OBJDEBUG\SELECTADVENTURE.OBJDEBUG\SOURCE.OBJDEBUG\STATE.OBJDEBUG\STATEMANAGER.OBJ
