^K:\SWINBURNE\2016\SEMESTER 2\GAMES PROGRAMMING\SPIKE 7\ZORKISHOO_2\ZORKISHOO_2\DEBUG\ABOUT.OBJ|K:\SWINBURNE\2016\SEMESTER 2\GAMES PROGRAMMING\SPIKE 7\ZORKISHOO_2\ZORKISHOO_2\DEBUG\ADVENTURE.OBJ|K:\SWINBURNE\2016\SEMESTER 2\GAMES PROGRAMMING\SPIKE 7\ZORKISHOO_2\ZORKISHOO_2\DEBUG\GAMEMAIN.OBJ|K:\SWINBURNE\2016\SEMESTER 2\GAMES PROGRAMMING\SPIKE 7\ZORKISHOO_2\ZORKISHOO_2\DEBUG\GAMEPLAY.OBJ|K:\SWINBURNE\2016\SEMESTER 2\GAMES PROGRAMMING\SPIKE 7\ZORKISHOO_2\ZORKISHOO_2\DEBUG\HALLOFAME.OBJ|K:\SWINBURNE\2016\SEMESTER 2\GAMES PROGRAMMING\SPIKE 7\ZORKISHOO_2\ZORKISHOO_2\DEBUG\HELP.OBJ|K:\SWINBURNE\2016\SEMESTER 2\GAMES PROGRAMMING\SPIKE 7\ZORKISHOO_2\ZORKISHOO_2\DEBUG\HIGHSCORE.OBJ|K:\SWINBURNE\2016\SEMESTER 2\GAMES PROGRAMMING\SPIKE 7\ZORKISHOO_2\ZORKISHOO_2\DEBUG\INVENTORY.OBJ|K:\SWINBURNE\2016\SEMESTER 2\GAMES PROGRAMMING\SPIKE 7\ZORKISHOO_2\ZORKISHOO_2\DEBUG\ITEM.OBJ|K:\SWINBURNE\2016\SEMESTER 2\GAMES PROGRAMMING\SPIKE 7\ZORKISHOO_2\ZORKISHOO_2\DEBUG\LOCATION.OBJ|K:\SWINBURNE\2016\SEMESTER 2\GAMES PROGRAMMING\SPIKE 7\ZORKISHOO_2\ZORKISHOO_2\DEBUG\MAINMENU.OBJ|K:\SWINBURNE\2016\SEMESTER 2\GAMES PROGRAMMING\SPIKE 7\ZORKISHOO_2\ZORKISHOO_2\DEBUG\PATH.OBJ|K:\SWINBURNE\2016\SEMESTER 2\GAMES PROGRAMMING\SPIKE 7\ZORKISHOO_2\ZORKISHOO_2\DEBUG\PLAYER.OBJ|K:\SWINBURNE\2016\SEMESTER 2\GAMES PROGRAMMING\SPIKE 7\ZORKISHOO_2\ZORKISHOO_2\DEBUG\SELECTADVENTURE.OBJ|K:\SWINBURNE\2016\SEMESTER 2\GAMES PROGRAMMING\SPIKE 7\ZORKISHOO_2\ZORKISHOO_2\DEBUG\SOURCE.OBJ|K:\SWINBURNE\2016\SEMESTER 2\GAMES PROGRAMMING\SPIKE 7\ZORKISHOO_2\ZORKISHOO_2\DEBUG\STATE.OBJ|K:\SWINBURNE\2016\SEMESTER 2\GAMES PROGRAMMING\SPIKE 7\ZORKISHOO_2\ZORKISHOO_2\DEBUG\STATEMANAGER.OBJ
C:\WINDOWS\GLOBALIZATION\SORTING\SORTDEFAULT.NLS
C:\PROGRAM FILES (X86)\WINDOWS KITS\8.1\LIB\WINV6.3\UM\X86\KERNEL32.LIB
C:\PROGRAM FILES (X86)\WINDOWS KITS\8.1\LIB\WINV6.3\UM\X86\USER32.LIB
C:\PROGRAM FILES (X86)\WINDOWS KITS\8.1\LIB\WINV6.3\UM\X86\GDI32.LIB
C:\PROGRAM FILES (X86)\WINDOWS KITS\8.1\LIB\WINV6.3\UM\X86\WINSPOOL.LIB
C:\PROGRAM FILES (X86)\WINDOWS KITS\8.1\LIB\WINV6.3\UM\X86\COMDLG32.LIB
C:\PROGRAM FILES (X86)\WINDOWS KITS\8.1\LIB\WINV6.3\UM\X86\ADVAPI32.LIB
C:\PROGRAM FILES (X86)\WINDOWS KITS\8.1\LIB\WINV6.3\UM\X86\SHELL32.LIB
C:\PROGRAM FILES (X86)\WINDOWS KITS\8.1\LIB\WINV6.3\UM\X86\OLE32.LIB
C:\PROGRAM FILES (X86)\WINDOWS KITS\8.1\LIB\WINV6.3\UM\X86\OLEAUT32.LIB
C:\PROGRAM FILES (X86)\WINDOWS KITS\8.1\LIB\WINV6.3\UM\X86\UUID.LIB
C:\PROGRAM FILES (X86)\WINDOWS KITS\8.1\LIB\WINV6.3\UM\X86\ODBC32.LIB
C:\PROGRAM FILES (X86)\WINDOWS KITS\8.1\LIB\WINV6.3\UM\X86\ODBCCP32.LIB
K:\SWINBURNE\2016\SEMESTER 2\GAMES PROGRAMMING\SPIKE 7\ZORKISHOO_2\ZORKISHOO_2\DEBUG\ABOUT.OBJ
K:\SWINBURNE\2016\SEMESTER 2\GAMES PROGRAMMING\SPIKE 7\ZORKISHOO_2\ZORKISHOO_2\DEBUG\ADVENTURE.OBJ
K:\SWINBURNE\2016\SEMESTER 2\GAMES PROGRAMMING\SPIKE 7\ZORKISHOO_2\ZORKISHOO_2\DEBUG\GAMEMAIN.OBJ
K:\SWINBURNE\2016\SEMESTER 2\GAMES PROGRAMMING\SPIKE 7\ZORKISHOO_2\ZORKISHOO_2\DEBUG\GAMEPLAY.OBJ
K:\SWINBURNE\2016\SEMESTER 2\GAMES PROGRAMMING\SPIKE 7\ZORKISHOO_2\ZORKISHOO_2\DEBUG\HALLOFAME.OBJ
K:\SWINBURNE\2016\SEMESTER 2\GAMES PROGRAMMING\SPIKE 7\ZORKISHOO_2\ZORKISHOO_2\DEBUG\HELP.OBJ
K:\SWINBURNE\2016\SEMESTER 2\GAMES PROGRAMMING\SPIKE 7\ZORKISHOO_2\ZORKISHOO_2\DEBUG\HIGHSCORE.OBJ
K:\SWINBURNE\2016\SEMESTER 2\GAMES PROGRAMMING\SPIKE 7\ZORKISHOO_2\ZORKISHOO_2\DEBUG\INVENTORY.OBJ
K:\SWINBURNE\2016\SEMESTER 2\GAMES PROGRAMMING\SPIKE 7\ZORKISHOO_2\ZORKISHOO_2\DEBUG\ITEM.OBJ
K:\SWINBURNE\2016\SEMESTER 2\GAMES PROGRAMMING\SPIKE 7\ZORKISHOO_2\ZORKISHOO_2\DEBUG\LOCATION.OBJ
K:\SWINBURNE\2016\SEMESTER 2\GAMES PROGRAMMING\SPIKE 7\ZORKISHOO_2\ZORKISHOO_2\DEBUG\MAINMENU.OBJ
K:\SWINBURNE\2016\SEMESTER 2\GAMES PROGRAMMING\SPIKE 7\ZORKISHOO_2\ZORKISHOO_2\DEBUG\PATH.OBJ
K:\SWINBURNE\2016\SEMESTER 2\GAMES PROGRAMMING\SPIKE 7\ZORKISHOO_2\ZORKISHOO_2\DEBUG\PLAYER.OBJ
K:\SWINBURNE\2016\SEMESTER 2\GAMES PROGRAMMING\SPIKE 7\ZORKISHOO_2\ZORKISHOO_2\DEBUG\SELECTADVENTURE.OBJ
K:\SWINBURNE\2016\SEMESTER 2\GAMES PROGRAMMING\SPIKE 7\ZORKISHOO_2\ZORKISHOO_2\DEBUG\SOURCE.OBJ
K:\SWINBURNE\2016\SEMESTER 2\GAMES PROGRAMMING\SPIKE 7\ZORKISHOO_2\ZORKISHOO_2\DEBUG\STATE.OBJ
K:\SWINBURNE\2016\SEMESTER 2\GAMES PROGRAMMING\SPIKE 7\ZORKISHOO_2\ZORKISHOO_2\DEBUG\STATEMANAGER.OBJ
C:\WINDOWS\SYSTEM32\TZRES.DLL
F:\PROGRAM FILES (X86)\MICROSOFT VISUAL STUDIO 14.0\VC\LIB\MSVCPRTD.LIB
F:\PROGRAM FILES (X86)\MICROSOFT VISUAL STUDIO 14.0\VC\LIB\MSVCRTD.LIB
F:\PROGRAM FILES (X86)\MICROSOFT VISUAL STUDIO 14.0\VC\LIB\OLDNAMES.LIB
F:\PROGRAM FILES (X86)\MICROSOFT VISUAL STUDIO 14.0\VC\LIB\VCRUNTIMED.LIB
C:\PROGRAM FILES (X86)\WINDOWS KITS\10\LIB\10.0.10240.0\UCRT\X86\UCRTD.LIB
^K:\SWINBURNE\2016\SEMESTER 2\SOURCETREE_GAMESPROGRAMMING\SPIKE 7\ZORKISHOO_2\ZORKISHOO_2\DEBUG\ABOUT.OBJ|K:\SWINBURNE\2016\SEMESTER 2\SOURCETREE_GAMESPROGRAMMING\SPIKE 7\ZORKISHOO_2\ZORKISHOO_2\DEBUG\ADVENTURE.OBJ|K:\SWINBURNE\2016\SEMESTER 2\SOURCETREE_GAMESPROGRAMMING\SPIKE 7\ZORKISHOO_2\ZORKISHOO_2\DEBUG\GAMEMAIN.OBJ|K:\SWINBURNE\2016\SEMESTER 2\SOURCETREE_GAMESPROGRAMMING\SPIKE 7\ZORKISHOO_2\ZORKISHOO_2\DEBUG\GAMEPLAY.OBJ|K:\SWINBURNE\2016\SEMESTER 2\SOURCETREE_GAMESPROGRAMMING\SPIKE 7\ZORKISHOO_2\ZORKISHOO_2\DEBUG\HALLOFAME.OBJ|K:\SWINBURNE\2016\SEMESTER 2\SOURCETREE_GAMESPROGRAMMING\SPIKE 7\ZORKISHOO_2\ZORKISHOO_2\DEBUG\HELP.OBJ|K:\SWINBURNE\2016\SEMESTER 2\SOURCETREE_GAMESPROGRAMMING\SPIKE 7\ZORKISHOO_2\ZORKISHOO_2\DEBUG\HIGHSCORE.OBJ|K:\SWINBURNE\2016\SEMESTER 2\SOURCETREE_GAMESPROGRAMMING\SPIKE 7\ZORKISHOO_2\ZORKISHOO_2\DEBUG\INVENTORY.OBJ|K:\SWINBURNE\2016\SEMESTER 2\SOURCETREE_GAMESPROGRAMMING\SPIKE 7\ZORKISHOO_2\ZORKISHOO_2\DEBUG\ITEM.OBJ|K:\SWINBURNE\2016\SEMESTER 2\SOURCETREE_GAMESPROGRAMMING\SPIKE 7\ZORKISHOO_2\ZORKISHOO_2\DEBUG\LOCATION.OBJ|K:\SWINBURNE\2016\SEMESTER 2\SOURCETREE_GAMESPROGRAMMING\SPIKE 7\ZORKISHOO_2\ZORKISHOO_2\DEBUG\MAINMENU.OBJ|K:\SWINBURNE\2016\SEMESTER 2\SOURCETREE_GAMESPROGRAMMING\SPIKE 7\ZORKISHOO_2\ZORKISHOO_2\DEBUG\PATH.OBJ|K:\SWINBURNE\2016\SEMESTER 2\SOURCETREE_GAMESPROGRAMMING\SPIKE 7\ZORKISHOO_2\ZORKISHOO_2\DEBUG\PLAYER.OBJ|K:\SWINBURNE\2016\SEMESTER 2\SOURCETREE_GAMESPROGRAMMING\SPIKE 7\ZORKISHOO_2\ZORKISHOO_2\DEBUG\SELECTADVENTURE.OBJ|K:\SWINBURNE\2016\SEMESTER 2\SOURCETREE_GAMESPROGRAMMING\SPIKE 7\ZORKISHOO_2\ZORKISHOO_2\DEBUG\SOURCE.OBJ|K:\SWINBURNE\2016\SEMESTER 2\SOURCETREE_GAMESPROGRAMMING\SPIKE 7\ZORKISHOO_2\ZORKISHOO_2\DEBUG\STATE.OBJ|K:\SWINBURNE\2016\SEMESTER 2\SOURCETREE_GAMESPROGRAMMING\SPIKE 7\ZORKISHOO_2\ZORKISHOO_2\DEBUG\STATEMANAGER.OBJ
C:\WINDOWS\GLOBALIZATION\SORTING\SORTDEFAULT.NLS
C:\PROGRAM FILES (X86)\WINDOWS KITS\8.1\LIB\WINV6.3\UM\X86\KERNEL32.LIB
C:\PROGRAM FILES (X86)\WINDOWS KITS\8.1\LIB\WINV6.3\UM\X86\USER32.LIB
C:\PROGRAM FILES (X86)\WINDOWS KITS\8.1\LIB\WINV6.3\UM\X86\GDI32.LIB
C:\PROGRAM FILES (X86)\WINDOWS KITS\8.1\LIB\WINV6.3\UM\X86\WINSPOOL.LIB
C:\PROGRAM FILES (X86)\WINDOWS KITS\8.1\LIB\WINV6.3\UM\X86\COMDLG32.LIB
C:\PROGRAM FILES (X86)\WINDOWS KITS\8.1\LIB\WINV6.3\UM\X86\ADVAPI32.LIB
C:\PROGRAM FILES (X86)\WINDOWS KITS\8.1\LIB\WINV6.3\UM\X86\SHELL32.LIB
C:\PROGRAM FILES (X86)\WINDOWS KITS\8.1\LIB\WINV6.3\UM\X86\OLE32.LIB
C:\PROGRAM FILES (X86)\WINDOWS KITS\8.1\LIB\WINV6.3\UM\X86\OLEAUT32.LIB
C:\PROGRAM FILES (X86)\WINDOWS KITS\8.1\LIB\WINV6.3\UM\X86\UUID.LIB
C:\PROGRAM FILES (X86)\WINDOWS KITS\8.1\LIB\WINV6.3\UM\X86\ODBC32.LIB
C:\PROGRAM FILES (X86)\WINDOWS KITS\8.1\LIB\WINV6.3\UM\X86\ODBCCP32.LIB
K:\SWINBURNE\2016\SEMESTER 2\SOURCETREE_GAMESPROGRAMMING\SPIKE 7\ZORKISHOO_2\ZORKISHOO_2\DEBUG\ABOUT.OBJ
K:\SWINBURNE\2016\SEMESTER 2\SOURCETREE_GAMESPROGRAMMING\SPIKE 7\ZORKISHOO_2\ZORKISHOO_2\DEBUG\ADVENTURE.OBJ
K:\SWINBURNE\2016\SEMESTER 2\SOURCETREE_GAMESPROGRAMMING\SPIKE 7\ZORKISHOO_2\ZORKISHOO_2\DEBUG\GAMEMAIN.OBJ
K:\SWINBURNE\2016\SEMESTER 2\SOURCETREE_GAMESPROGRAMMING\SPIKE 7\ZORKISHOO_2\ZORKISHOO_2\DEBUG\GAMEPLAY.OBJ
K:\SWINBURNE\2016\SEMESTER 2\SOURCETREE_GAMESPROGRAMMING\SPIKE 7\ZORKISHOO_2\ZORKISHOO_2\DEBUG\HALLOFAME.OBJ
K:\SWINBURNE\2016\SEMESTER 2\SOURCETREE_GAMESPROGRAMMING\SPIKE 7\ZORKISHOO_2\ZORKISHOO_2\DEBUG\HELP.OBJ
K:\SWINBURNE\2016\SEMESTER 2\SOURCETREE_GAMESPROGRAMMING\SPIKE 7\ZORKISHOO_2\ZORKISHOO_2\DEBUG\HIGHSCORE.OBJ
K:\SWINBURNE\2016\SEMESTER 2\SOURCETREE_GAMESPROGRAMMING\SPIKE 7\ZORKISHOO_2\ZORKISHOO_2\DEBUG\INVENTORY.OBJ
K:\SWINBURNE\2016\SEMESTER 2\SOURCETREE_GAMESPROGRAMMING\SPIKE 7\ZORKISHOO_2\ZORKISHOO_2\DEBUG\ITEM.OBJ
K:\SWINBURNE\2016\SEMESTER 2\SOURCETREE_GAMESPROGRAMMING\SPIKE 7\ZORKISHOO_2\ZORKISHOO_2\DEBUG\LOCATION.OBJ
K:\SWINBURNE\2016\SEMESTER 2\SOURCETREE_GAMESPROGRAMMING\SPIKE 7\ZORKISHOO_2\ZORKISHOO_2\DEBUG\MAINMENU.OBJ
K:\SWINBURNE\2016\SEMESTER 2\SOURCETREE_GAMESPROGRAMMING\SPIKE 7\ZORKISHOO_2\ZORKISHOO_2\DEBUG\PATH.OBJ
K:\SWINBURNE\2016\SEMESTER 2\SOURCETREE_GAMESPROGRAMMING\SPIKE 7\ZORKISHOO_2\ZORKISHOO_2\DEBUG\PLAYER.OBJ
K:\SWINBURNE\2016\SEMESTER 2\SOURCETREE_GAMESPROGRAMMING\SPIKE 7\ZORKISHOO_2\ZORKISHOO_2\DEBUG\SELECTADVENTURE.OBJ
K:\SWINBURNE\2016\SEMESTER 2\SOURCETREE_GAMESPROGRAMMING\SPIKE 7\ZORKISHOO_2\ZORKISHOO_2\DEBUG\SOURCE.OBJ
K:\SWINBURNE\2016\SEMESTER 2\SOURCETREE_GAMESPROGRAMMING\SPIKE 7\ZORKISHOO_2\ZORKISHOO_2\DEBUG\STATE.OBJ
K:\SWINBURNE\2016\SEMESTER 2\SOURCETREE_GAMESPROGRAMMING\SPIKE 7\ZORKISHOO_2\ZORKISHOO_2\DEBUG\STATEMANAGER.OBJ
C:\WINDOWS\SYSTEM32\TZRES.DLL
F:\PROGRAM FILES (X86)\MICROSOFT VISUAL STUDIO 14.0\VC\LIB\MSVCPRTD.LIB
F:\PROGRAM FILES (X86)\MICROSOFT VISUAL STUDIO 14.0\VC\LIB\MSVCRTD.LIB
F:\PROGRAM FILES (X86)\MICROSOFT VISUAL STUDIO 14.0\VC\LIB\OLDNAMES.LIB
F:\PROGRAM FILES (X86)\MICROSOFT VISUAL STUDIO 14.0\VC\LIB\VCRUNTIMED.LIB
C:\PROGRAM FILES (X86)\WINDOWS KITS\10\LIB\10.0.10240.0\UCRT\X86\UCRTD.LIB
