^K:\SWINBURNE\2016\SEMESTER 2\SOURCETREE_GAMESPROGRAMMING\SPIKE 8.1\ZORKISHOO_2\UNITTEST1\STDAFX.CPP
K:\SWINBURNE\2016\SEMESTER 2\SOURCETREE_GAMESPROGRAMMING\SPIKE 8.1\ZORKISHOO_2\UNITTEST1\X64\DEBUG\UNITTEST1.PCH
K:\SWINBURNE\2016\SEMESTER 2\SOURCETREE_GAMESPROGRAMMING\SPIKE 8.1\ZORKISHOO_2\UNITTEST1\X64\DEBUG\VC140.PDB
K:\SWINBURNE\2016\SEMESTER 2\SOURCETREE_GAMESPROGRAMMING\SPIKE 8.1\ZORKISHOO_2\UNITTEST1\X64\DEBUG\VC140.IDB
K:\SWINBURNE\2016\SEMESTER 2\SOURCETREE_GAMESPROGRAMMING\SPIKE 8.1\ZORKISHOO_2\UNITTEST1\X64\DEBUG\STDAFX.OBJ
^K:\SWINBURNE\2016\SEMESTER 2\SOURCETREE_GAMESPROGRAMMING\SPIKE 8.1\ZORKISHOO_2\UNITTEST1\UNITTEST1.CPP
K:\SWINBURNE\2016\SEMESTER 2\SOURCETREE_GAMESPROGRAMMING\SPIKE 8.1\ZORKISHOO_2\UNITTEST1\X64\DEBUG\VC140.PDB
K:\SWINBURNE\2016\SEMESTER 2\SOURCETREE_GAMESPROGRAMMING\SPIKE 8.1\ZORKISHOO_2\UNITTEST1\X64\DEBUG\VC140.IDB
K:\SWINBURNE\2016\SEMESTER 2\SOURCETREE_GAMESPROGRAMMING\SPIKE 8.1\ZORKISHOO_2\UNITTEST1\X64\DEBUG\UNITTEST1.OBJ
