^K:\SWINBURNE\2016\SEMESTER 2\SOURCETREE_GAMESPROGRAMMING\SPIKE 8.1\ZORKISHOO_2\UNITTESTREAL\STDAFX.CPP
K:\SWINBURNE\2016\SEMESTER 2\SOURCETREE_GAMESPROGRAMMING\SPIKE 8.1\ZORKISHOO_2\UNITTESTREAL\X64\DEBUG\UNITTESTREAL.PCH
K:\SWINBURNE\2016\SEMESTER 2\SOURCETREE_GAMESPROGRAMMING\SPIKE 8.1\ZORKISHOO_2\UNITTESTREAL\X64\DEBUG\VC140.PDB
K:\SWINBURNE\2016\SEMESTER 2\SOURCETREE_GAMESPROGRAMMING\SPIKE 8.1\ZORKISHOO_2\UNITTESTREAL\X64\DEBUG\VC140.IDB
K:\SWINBURNE\2016\SEMESTER 2\SOURCETREE_GAMESPROGRAMMING\SPIKE 8.1\ZORKISHOO_2\UNITTESTREAL\X64\DEBUG\STDAFX.OBJ
^K:\SWINBURNE\2016\SEMESTER 2\SOURCETREE_GAMESPROGRAMMING\SPIKE 8.1\ZORKISHOO_2\UNITTESTREAL\UNITTEST1.CPP
K:\SWINBURNE\2016\SEMESTER 2\SOURCETREE_GAMESPROGRAMMING\SPIKE 8.1\ZORKISHOO_2\UNITTESTREAL\X64\DEBUG\VC140.PDB
K:\SWINBURNE\2016\SEMESTER 2\SOURCETREE_GAMESPROGRAMMING\SPIKE 8.1\ZORKISHOO_2\UNITTESTREAL\X64\DEBUG\VC140.IDB
K:\SWINBURNE\2016\SEMESTER 2\SOURCETREE_GAMESPROGRAMMING\SPIKE 8.1\ZORKISHOO_2\UNITTESTREAL\X64\DEBUG\UNITTEST1.OBJ
